<?xml version="1.0" encoding="UTF-8" standalone="no"?>
<!-- Created with Inkscape (http://www.inkscape.org/) -->

<svg
   xmlns:dc="http://purl.org/dc/elements/1.1/"
   xmlns:cc="http://creativecommons.org/ns#"
   xmlns:rdf="http://www.w3.org/1999/02/22-rdf-syntax-ns#"
   xmlns:svg="http://www.w3.org/2000/svg"
   xmlns="http://www.w3.org/2000/svg"
   xmlns:xlink="http://www.w3.org/1999/xlink"
   xmlns:sodipodi="http://sodipodi.sourceforge.net/DTD/sodipodi-0.dtd"
   xmlns:inkscape="http://www.inkscape.org/namespaces/inkscape"
   width="73"
   height="24"
   id="svg44615"
   version="1.1"
   inkscape:version="0.48.4 r9939"
   sodipodi:docname="Новый документ 5">
  <defs
     id="defs44617">
    <linearGradient
       inkscape:collect="always"
       xlink:href="#linearGradient18264-2-25-30"
       id="linearGradient19049-2"
       gradientUnits="userSpaceOnUse"
       gradientTransform="matrix(-3.2684704,0,0,-3.6477347,1580.3477,1296.9295)"
       x1="472.55441"
       y1="67.070892"
       x2="472.55441"
       y2="73.617867" />
    <linearGradient
       id="linearGradient18264-2-25-30">
      <stop
         style="stop-color:#363636;stop-opacity:1;"
         offset="0"
         id="stop18266-9-69-48" />
      <stop
         style="stop-color:#9a9a9a;stop-opacity:1;"
         offset="1"
         id="stop18268-7-4-4" />
    </linearGradient>
    <linearGradient
       inkscape:collect="always"
       xlink:href="#linearGradient23929"
       id="linearGradient23935"
       x1="121.88635"
       y1="151.98523"
       x2="141.75652"
       y2="151.98523"
       gradientUnits="userSpaceOnUse"
       gradientTransform="matrix(3.664685,0,0,3.664685,-424.78822,168.60849)" />
    <linearGradient
       id="linearGradient23929">
      <stop
         style="stop-color:#616161;stop-opacity:1;"
         offset="0"
         id="stop23931" />
      <stop
         style="stop-color:#616161;stop-opacity:0.48571429;"
         offset="1"
         id="stop23933" />
    </linearGradient>
    <linearGradient
       inkscape:collect="always"
       xlink:href="#linearGradient23921"
       id="linearGradient23927"
       x1="121.88635"
       y1="151.98523"
       x2="141.75652"
       y2="151.98523"
       gradientUnits="userSpaceOnUse"
       gradientTransform="matrix(3.664685,0,0,3.664685,-424.78822,168.60849)" />
    <linearGradient
       inkscape:collect="always"
       id="linearGradient23921">
      <stop
         style="stop-color:#616161;stop-opacity:1;"
         offset="0"
         id="stop23923" />
      <stop
         style="stop-color:#616161;stop-opacity:0;"
         offset="1"
         id="stop23925" />
    </linearGradient>
    <linearGradient
       y2="151.98523"
       x2="141.75652"
       y1="151.98523"
       x1="121.88635"
       gradientTransform="matrix(3.6708216,0,0,3.7452889,-447.39819,470.98516)"
       gradientUnits="userSpaceOnUse"
       id="linearGradient44611"
       xlink:href="#linearGradient23929"
       inkscape:collect="always" />
    <linearGradient
       y2="151.98523"
       x2="141.75652"
       y1="151.98523"
       x1="121.88635"
       gradientTransform="matrix(3.6708216,0,0,3.7452889,-447.39819,470.98516)"
       gradientUnits="userSpaceOnUse"
       id="linearGradient44613"
       xlink:href="#linearGradient23921"
       inkscape:collect="always" />
    <linearGradient
       inkscape:collect="always"
       xlink:href="#linearGradient20017-9"
       id="linearGradient20383-7"
       gradientUnits="userSpaceOnUse"
       x1="357.15625"
       y1="47.249157"
       x2="357.15625"
       y2="151.25627" />
    <linearGradient
       id="linearGradient20017-9">
      <stop
         style="stop-color:#000000;stop-opacity:1;"
         offset="0"
         id="stop20019-1" />
      <stop
         style="stop-color:#868686;stop-opacity:1;"
         offset="1"
         id="stop20021-6" />
    </linearGradient>
    <linearGradient
       y2="151.39819"
       x2="352.40625"
       y1="47.077705"
       x1="352.40625"
       gradientUnits="userSpaceOnUse"
       id="linearGradient23694"
       xlink:href="#linearGradient20115-03"
       inkscape:collect="always" />
    <linearGradient
       id="linearGradient20115-03">
      <stop
         id="stop20117-4"
         offset="0"
         style="stop-color:#2d2d2d;stop-opacity:1;" />
      <stop
         id="stop20119-7"
         offset="1"
         style="stop-color:#434343;stop-opacity:1;" />
    </linearGradient>
    <linearGradient
       y2="151.39819"
       x2="352.40625"
       y1="47.077705"
       x1="352.40625"
       gradientUnits="userSpaceOnUse"
       id="linearGradient23696"
       xlink:href="#linearGradient20115-03"
       inkscape:collect="always" />
    <linearGradient
       id="linearGradient45469">
      <stop
         id="stop45471"
         offset="0"
         style="stop-color:#2d2d2d;stop-opacity:1;" />
      <stop
         id="stop45473"
         offset="1"
         style="stop-color:#434343;stop-opacity:1;" />
    </linearGradient>
    <linearGradient
       y2="151.39819"
       x2="352.40625"
       y1="47.077705"
       x1="352.40625"
       gradientUnits="userSpaceOnUse"
       id="linearGradient45478"
       xlink:href="#linearGradient20115-03"
       inkscape:collect="always" />
    <linearGradient
       y2="151.39819"
       x2="352.40625"
       y1="47.077705"
       x1="352.40625"
       gradientUnits="userSpaceOnUse"
       id="linearGradient45480"
       xlink:href="#linearGradient20115-03"
       inkscape:collect="always" />
  </defs>
  <sodipodi:namedview
     id="base"
     pagecolor="#ffffff"
     bordercolor="#666666"
     borderopacity="1.0"
     inkscape:pageopacity="0.0"
     inkscape:pageshadow="2"
     inkscape:zoom="7.9195959"
     inkscape:cx="8.413277"
     inkscape:cy="12.587707"
     inkscape:document-units="px"
     inkscape:current-layer="layer1"
     showgrid="false"
     inkscape:window-width="1920"
     inkscape:window-height="1011"
     inkscape:window-x="-3"
     inkscape:window-y="-3"
     inkscape:window-maximized="1" />
  <metadata
     id="metadata44620">
    <rdf:RDF>
      <cc:Work
         rdf:about="">
        <dc:format>image/svg+xml</dc:format>
        <dc:type
           rdf:resource="http://purl.org/dc/dcmitype/StillImage" />
        <dc:title></dc:title>
      </cc:Work>
    </rdf:RDF>
  </metadata>
  <g
     inkscape:label="Layer 1"
     inkscape:groupmode="layer"
     id="layer1"
     transform="translate(0,-1028.3622)">
    <rect
       style="fill:url(#linearGradient44611);fill-opacity:1;fill-rule:nonzero;stroke:url(#linearGradient44613);stroke-width:4.55933237;stroke-linejoin:round;stroke-miterlimit:4;stroke-opacity:1;stroke-dasharray:none"
       id="rect23021-5-4-9-1"
       width="68.426064"
       height="19.148424"
       x="2.2817616"
       y="1030.6399" />
    <path
       style="fill:none;stroke:url(#linearGradient19049-2);stroke-width:0.34528995;stroke-miterlimit:4;stroke-opacity:1;stroke-dasharray:none"
       d="m 69.192421,1028.5884 c 2.380829,0.034 2.260975,0.015 2.770687,0.4416 0.317227,0.2666 0.531483,0.5582 0.695497,0.9487 l 0.122806,0.2928 0.03282,8.9484 c 0.0366,9.452 0.01556,11.1069 -0.156046,11.5131 -0.241922,0.5818 -0.619523,1.0116 -1.155374,1.317 l -0.241931,0.1376 -34.766335,-0.015 -34.7663717,-0.015 -0.281045,-0.1469 c -0.361446,-0.1895 -0.85519178,-0.7237 -1.09126909,-1.181 l -0.18529556,-0.3596 0,-10.0578 0,-10.0579 0.16622747,-0.3803 c 0.20967918,-0.4803 0.67459358,-1.007 1.10851228,-1.2558 l 0.3227214,-0.185 32.6393042,0.011 c 17.951529,0.011 33.604414,0.026 34.784104,0.043 z"
       id="path18262-6-5-8"
       inkscape:connector-curvature="0" />
  </g>
</svg>
