<?xml version="1.0" encoding="UTF-8" standalone="no"?>
<!-- Created with Inkscape (http://www.inkscape.org/) -->

<svg
   xmlns:dc="http://purl.org/dc/elements/1.1/"
   xmlns:cc="http://creativecommons.org/ns#"
   xmlns:rdf="http://www.w3.org/1999/02/22-rdf-syntax-ns#"
   xmlns:svg="http://www.w3.org/2000/svg"
   xmlns="http://www.w3.org/2000/svg"
   xmlns:xlink="http://www.w3.org/1999/xlink"
   xmlns:sodipodi="http://sodipodi.sourceforge.net/DTD/sodipodi-0.dtd"
   xmlns:inkscape="http://www.inkscape.org/namespaces/inkscape"
   width="100"
   height="100"
   id="svg48089"
   version="1.1"
   inkscape:version="0.48.4 r9939"
   sodipodi:docname="pass.svg">
  <defs
     id="defs48091">
    <linearGradient
       x1="1.12792"
       y1="120.559"
       x2="109.087"
       y2="120.559"
       id="linearGradient3318-2-9-8-6-0"
       xlink:href="#defitem3-3-6-96-6-2"
       gradientUnits="userSpaceOnUse"
       gradientTransform="matrix(1,0,0,-1.23881,0,147.87447)" />
    <linearGradient
       x1="1.12792"
       y1="120.559"
       x2="109.087"
       y2="120.559"
       id="defitem3-3-6-96-6-2"
       gradientUnits="userSpaceOnUse">
      <stop
         id="stop13-3-28-47-6-5"
         style="stop-color:#f2f2f2;stop-opacity:1"
         offset="0" />
      <stop
         id="stop14-9-5-7-9-0"
         style="stop-color:#858397;stop-opacity:1"
         offset="1" />
    </linearGradient>
    <linearGradient
       x1="30.8943"
       y1="62.425701"
       x2="24.7083"
       y2="102.331"
       id="linearGradient3315-6-4-9-6-4"
       xlink:href="#defitem4-3-5-59-7-6"
       gradientUnits="userSpaceOnUse"
       gradientTransform="matrix(1,0,0,-1.23881,0,147.87447)" />
    <linearGradient
       x1="30.8943"
       y1="62.425701"
       x2="24.7083"
       y2="102.331"
       id="defitem4-3-5-59-7-6"
       gradientUnits="userSpaceOnUse">
      <stop
         id="stop16-1-1-7-0-7"
         style="stop-color:#ffffff;stop-opacity:0"
         offset="0" />
      <stop
         id="stop17-8-3-8-1-3"
         style="stop-color:#ffffff;stop-opacity:1"
         offset="1" />
    </linearGradient>
    <linearGradient
       x1="13.1868"
       y1="104.102"
       x2="6.01124"
       y2="96.025497"
       id="linearGradient3312-3-45-3-8-9"
       xlink:href="#defitem5-7-7-0-1-9"
       gradientUnits="userSpaceOnUse"
       gradientTransform="matrix(1,0,0,-1.23881,0,147.87447)" />
    <linearGradient
       x1="13.1868"
       y1="104.102"
       x2="6.01124"
       y2="96.025497"
       id="defitem5-7-7-0-1-9"
       gradientUnits="userSpaceOnUse">
      <stop
         id="stop19-1-3-86-4-3"
         style="stop-color:#797b97;stop-opacity:1"
         offset="0" />
      <stop
         id="stop20-4-4-27-4-8"
         style="stop-color:#ffffff;stop-opacity:1"
         offset="1" />
    </linearGradient>
    <linearGradient
       x1="3.8431599"
       y1="112.828"
       x2="24.6336"
       y2="107.804"
       id="linearGradient3309-5-0-2-5-8"
       xlink:href="#defitem6-5-87-07-1-3"
       gradientUnits="userSpaceOnUse"
       gradientTransform="matrix(1,0,0,-1.23881,0,147.87447)" />
    <linearGradient
       x1="3.8431599"
       y1="112.828"
       x2="24.6336"
       y2="107.804"
       id="defitem6-5-87-07-1-3"
       gradientUnits="userSpaceOnUse">
      <stop
         id="stop22-5-43-0-0-2"
         style="stop-color:#ffffff;stop-opacity:1"
         offset="0" />
      <stop
         id="stop23-7-4-1-2-8"
         style="stop-color:#979797;stop-opacity:0"
         offset="1" />
    </linearGradient>
    <linearGradient
       x1="19.3965"
       y1="111.202"
       x2="88.568703"
       y2="76.347198"
       id="linearGradient3306-9-7-2-8-5"
       xlink:href="#defitem7-9-2-5-9-1"
       gradientUnits="userSpaceOnUse"
       gradientTransform="matrix(1,0,0,-1.23881,0,147.87447)" />
    <linearGradient
       x1="19.3965"
       y1="111.202"
       x2="88.568703"
       y2="76.347198"
       id="defitem7-9-2-5-9-1"
       gradientUnits="userSpaceOnUse">
      <stop
         id="stop25-0-0-4-0-5"
         style="stop-color:#007be1;stop-opacity:1"
         offset="0" />
      <stop
         id="stop26-1-74-62-2-8"
         style="stop-color:#baffff;stop-opacity:1"
         offset="1" />
    </linearGradient>
    <linearGradient
       x1="33.541901"
       y1="101.608"
       x2="16.1413"
       y2="115.19"
       id="linearGradient3303-2-80-34-9-6"
       xlink:href="#defitem8-9-0-1-1-5"
       gradientUnits="userSpaceOnUse"
       gradientTransform="matrix(1,0,0,-1.23881,0,147.87447)" />
    <linearGradient
       x1="33.541901"
       y1="101.608"
       x2="16.1413"
       y2="115.19"
       id="defitem8-9-0-1-1-5"
       gradientUnits="userSpaceOnUse">
      <stop
         id="stop28-1-34-5-0-3"
         style="stop-color:#ffffff;stop-opacity:0"
         offset="0" />
      <stop
         id="stop29-3-1-4-8-0"
         style="stop-color:#ffffff;stop-opacity:1"
         offset="1" />
    </linearGradient>
    <linearGradient
       x1="63.100601"
       y1="83.289299"
       x2="62.948997"
       y2="73.160408"
       id="linearGradient3300-07-2-13-4-7"
       xlink:href="#defitem9-3-2-0-8-6"
       gradientUnits="userSpaceOnUse"
       gradientTransform="matrix(1,0,0,-1.23881,0,147.87447)" />
    <linearGradient
       x1="63.100601"
       y1="83.289299"
       x2="57.624001"
       y2="74.022102"
       id="defitem9-3-2-0-8-6"
       gradientUnits="userSpaceOnUse">
      <stop
         id="stop31-9-5-8-7-1"
         style="stop-color:#ffffff;stop-opacity:0"
         offset="0" />
      <stop
         id="stop32-1-1-0-4-4"
         style="stop-color:#ffffff;stop-opacity:1"
         offset="1" />
    </linearGradient>
    <linearGradient
       x1="84.804703"
       y1="46.0284"
       x2="75.546997"
       y2="72.308701"
       id="linearGradient3297-7-8-9-8-7"
       xlink:href="#defitem10-4-9-32-6-8"
       gradientUnits="userSpaceOnUse"
       gradientTransform="matrix(1,0,0,-1.23881,0,147.87447)" />
    <linearGradient
       x1="84.804703"
       y1="46.0284"
       x2="75.546997"
       y2="72.308701"
       id="defitem10-4-9-32-6-8"
       gradientUnits="userSpaceOnUse">
      <stop
         id="stop34-5-8-8-6-0"
         style="stop-color:#f2f2f2;stop-opacity:1"
         offset="0" />
      <stop
         id="stop35-2-1-2-7-9"
         style="stop-color:#858397;stop-opacity:1"
         offset="1" />
    </linearGradient>
    <linearGradient
       x1="58.852299"
       y1="111.905"
       x2="44.979099"
       y2="107.275"
       id="linearGradient3294-7-3-58-4-2"
       xlink:href="#defitem11-6-4-0-2-5"
       gradientUnits="userSpaceOnUse"
       gradientTransform="matrix(1,0,0,-1.23881,0,147.87447)" />
    <linearGradient
       x1="58.852299"
       y1="111.905"
       x2="44.979099"
       y2="107.275"
       id="defitem11-6-4-0-2-5"
       gradientUnits="userSpaceOnUse">
      <stop
         id="stop37-0-62-33-8-9"
         style="stop-color:#f2f2f2;stop-opacity:1"
         offset="0" />
      <stop
         id="stop38-3-7-95-0-8"
         style="stop-color:#858397;stop-opacity:1"
         offset="1" />
    </linearGradient>
    <linearGradient
       x1="68.715599"
       y1="35.413502"
       x2="83.1838"
       y2="57.513901"
       id="linearGradient3282-7-3-36-1-3"
       xlink:href="#linearGradient3284-9-2-84-9-9"
       gradientUnits="userSpaceOnUse"
       gradientTransform="matrix(1,0,0,-1.23881,-0.25,147.62447)" />
    <linearGradient
       x1="68.715599"
       y1="35.413502"
       x2="83.1838"
       y2="57.513901"
       id="linearGradient3284-9-2-84-9-9"
       gradientUnits="userSpaceOnUse">
      <stop
         id="stop3286-6-5-13-4-1"
         style="stop-color:#ffffff;stop-opacity:1"
         offset="0" />
      <stop
         id="stop3288-7-2-09-9-4"
         style="stop-color:#979797;stop-opacity:1"
         offset="1" />
    </linearGradient>
    <linearGradient
       x1="66.753403"
       y1="55.8927"
       x2="65.349197"
       y2="35.799"
       id="linearGradient2504-2-88-7-2-0"
       xlink:href="#defitem13-3-6-35-8-5"
       gradientUnits="userSpaceOnUse"
       gradientTransform="matrix(1,0,0,-1.23881,0,147.87447)" />
    <linearGradient
       x1="66.753403"
       y1="55.8927"
       x2="65.349197"
       y2="35.799"
       id="defitem13-3-6-35-8-5"
       gradientUnits="userSpaceOnUse">
      <stop
         id="stop43-4-5-90-5-4"
         style="stop-color:#ffffff;stop-opacity:1"
         offset="0" />
      <stop
         id="stop44-7-26-1-7-8"
         style="stop-color:#979797;stop-opacity:1"
         offset="1" />
    </linearGradient>
    <linearGradient
       x1="69.431503"
       y1="50.4006"
       x2="70.987297"
       y2="51.693298"
       id="linearGradient2500-0-4-2-2-8"
       xlink:href="#defitem14-1-6-32-6-6"
       gradientUnits="userSpaceOnUse"
       gradientTransform="matrix(1,0,0,-1.23881,0,147.87447)" />
    <linearGradient
       x1="69.431503"
       y1="50.4006"
       x2="70.987297"
       y2="51.693298"
       id="defitem14-1-6-32-6-6"
       gradientUnits="userSpaceOnUse">
      <stop
         id="stop46-7-7-0-1-8"
         style="stop-color:#ffffff;stop-opacity:1"
         offset="0" />
      <stop
         id="stop47-9-5-6-2-3"
         style="stop-color:#979797;stop-opacity:1"
         offset="1" />
    </linearGradient>
    <linearGradient
       x1="103.44018"
       y1="66.816483"
       x2="100.60335"
       y2="57.497055"
       id="linearGradient2497-3-7-35-7-0"
       xlink:href="#defitem15-0-0-8-4-3"
       gradientUnits="userSpaceOnUse"
       gradientTransform="matrix(1,0,0,-1.23881,0,147.87447)" />
    <linearGradient
       x1="107.964"
       y1="66.357201"
       x2="96.668999"
       y2="59.480701"
       id="defitem15-0-0-8-4-3"
       gradientUnits="userSpaceOnUse">
      <stop
         id="stop49-3-1-2-6-3"
         style="stop-color:#ffffff;stop-opacity:1"
         offset="0" />
      <stop
         id="stop50-4-0-9-6-6"
         style="stop-color:#979797;stop-opacity:0"
         offset="1" />
    </linearGradient>
  </defs>
  <sodipodi:namedview
     id="base"
     pagecolor="#ffffff"
     bordercolor="#666666"
     borderopacity="1.0"
     inkscape:pageopacity="0.0"
     inkscape:pageshadow="2"
     inkscape:zoom="2.8"
     inkscape:cx="46.025136"
     inkscape:cy="37.805324"
     inkscape:document-units="px"
     inkscape:current-layer="layer1"
     showgrid="false"
     inkscape:window-width="1920"
     inkscape:window-height="1011"
     inkscape:window-x="-3"
     inkscape:window-y="-3"
     inkscape:window-maximized="1" />
  <metadata
     id="metadata48094">
    <rdf:RDF>
      <cc:Work
         rdf:about="">
        <dc:format>image/svg+xml</dc:format>
        <dc:type
           rdf:resource="http://purl.org/dc/dcmitype/StillImage" />
        <dc:title />
      </cc:Work>
    </rdf:RDF>
  </metadata>
  <g
     inkscape:label="Layer 1"
     inkscape:groupmode="layer"
     id="layer1"
     transform="translate(0,-952.3622)">
    <path
       sodipodi:type="arc"
       style="fill:none;stroke:#d1d1d1;stroke-width:2.29999995;stroke-linecap:round;stroke-linejoin:round;stroke-miterlimit:4;stroke-opacity:1;stroke-dasharray:none;stroke-dashoffset:0"
       id="path23002"
       sodipodi:cx="1191.98"
       sodipodi:cy="341.86163"
       sodipodi:rx="1.2626907"
       sodipodi:ry="1.2626907"
       d="m 1193.2427,341.86163 a 1.2626907,1.2626907 0 1 1 -2.5254,0 1.2626907,1.2626907 0 1 1 2.5254,0 z"
       transform="matrix(4.6893117,0,0,4.6893117,-5575.6001,-601.06456)" />
    <path
       sodipodi:type="arc"
       style="fill:none;stroke:#d1d1d1;stroke-width:2.29999995;stroke-linecap:round;stroke-linejoin:round;stroke-miterlimit:4;stroke-opacity:1;stroke-dasharray:none;stroke-dashoffset:0"
       id="path23002-7"
       sodipodi:cx="1191.98"
       sodipodi:cy="341.86163"
       sodipodi:rx="1.2626907"
       sodipodi:ry="1.2626907"
       d="m 1193.2427,341.86163 a 1.2626907,1.2626907 0 1 1 -2.5254,0 1.2626907,1.2626907 0 1 1 2.5254,0 z"
       transform="matrix(4.6893117,0,0,4.6893117,-5539.3705,-602.01705)" />
    <path
       sodipodi:type="arc"
       style="fill:none;stroke:#d1d1d1;stroke-width:2.29999995;stroke-linecap:round;stroke-linejoin:round;stroke-miterlimit:4;stroke-opacity:1;stroke-dasharray:none;stroke-dashoffset:0"
       id="path23002-3"
       sodipodi:cx="1191.98"
       sodipodi:cy="341.86163"
       sodipodi:rx="1.2626907"
       sodipodi:ry="1.2626907"
       d="m 1193.2427,341.86163 a 1.2626907,1.2626907 0 1 1 -2.5254,0 1.2626907,1.2626907 0 1 1 2.5254,0 z"
       transform="matrix(4.6893117,0,0,4.6893117,-5503.2149,-601.37415)" />
  </g>
</svg>
