<?xml version="1.0" encoding="UTF-8" standalone="no"?>
<!-- Created with Inkscape (http://www.inkscape.org/) -->

<svg
   xmlns:dc="http://purl.org/dc/elements/1.1/"
   xmlns:cc="http://creativecommons.org/ns#"
   xmlns:rdf="http://www.w3.org/1999/02/22-rdf-syntax-ns#"
   xmlns:svg="http://www.w3.org/2000/svg"
   xmlns="http://www.w3.org/2000/svg"
   xmlns:xlink="http://www.w3.org/1999/xlink"
   xmlns:sodipodi="http://sodipodi.sourceforge.net/DTD/sodipodi-0.dtd"
   xmlns:inkscape="http://www.inkscape.org/namespaces/inkscape"
   width="143"
   height="83"
   id="svg48872"
   version="1.1"
   inkscape:version="0.48.4 r9939"
   sodipodi:docname="Czar.svg">
  <defs
     id="defs48874">
    <linearGradient
       id="linearGradient18264-02-5-9-01">
      <stop
         style="stop-color:#292929;stop-opacity:1;"
         offset="0"
         id="stop18266-978-6-5-2" />
      <stop
         style="stop-color:#9a9a9a;stop-opacity:0.47187501;"
         offset="1"
         id="stop18268-1-4-6-1" />
    </linearGradient>
    <linearGradient
       id="linearGradient18264-02-5-9-01-8">
      <stop
         style="stop-color:#292929;stop-opacity:1;"
         offset="0"
         id="stop18266-978-6-5-2-4" />
      <stop
         style="stop-color:#9a9a9a;stop-opacity:0.47187501;"
         offset="1"
         id="stop18268-1-4-6-1-3" />
    </linearGradient>
    <linearGradient
       id="linearGradient18264-02-5-9-0-7">
      <stop
         style="stop-color:#292929;stop-opacity:1;"
         offset="0"
         id="stop18266-978-6-5-7-9" />
      <stop
         style="stop-color:#9a9a9a;stop-opacity:0.47187501;"
         offset="1"
         id="stop18268-1-4-6-7-2" />
    </linearGradient>
    <linearGradient
       inkscape:collect="always"
       xlink:href="#linearGradient20647-0-1"
       id="linearGradient14870"
       gradientUnits="userSpaceOnUse"
       x1="350.09854"
       y1="224.3719"
       x2="336.39886"
       y2="207.00343"
       gradientTransform="matrix(3.6824347,0,0,3.6824347,-695.69298,-5.7952918)" />
    <linearGradient
       id="linearGradient20647-0-1">
      <stop
         style="stop-color:#123e07;stop-opacity:1;"
         offset="0"
         id="stop20649-2-7" />
      <stop
         style="stop-color:#1b5d0b;stop-opacity:1;"
         offset="1"
         id="stop20651-8-2" />
    </linearGradient>
    <linearGradient
       inkscape:collect="always"
       xlink:href="#linearGradient20647-0-1"
       id="linearGradient14872"
       gradientUnits="userSpaceOnUse"
       x1="350.09854"
       y1="224.3719"
       x2="336.39886"
       y2="207.00343"
       gradientTransform="matrix(3.6824347,0,0,3.6824347,-695.69298,-5.7952918)" />
    <linearGradient
       id="linearGradient49010">
      <stop
         style="stop-color:#123e07;stop-opacity:1;"
         offset="0"
         id="stop49012" />
      <stop
         style="stop-color:#1b5d0b;stop-opacity:1;"
         offset="1"
         id="stop49014" />
    </linearGradient>
    <linearGradient
       id="linearGradient18264-02-5-9-01-2">
      <stop
         style="stop-color:#292929;stop-opacity:1;"
         offset="0"
         id="stop18266-978-6-5-2-1" />
      <stop
         style="stop-color:#9a9a9a;stop-opacity:0.47187501;"
         offset="1"
         id="stop18268-1-4-6-1-31" />
    </linearGradient>
    <linearGradient
       inkscape:collect="always"
       xlink:href="#linearGradient18264-02-5-9-2-8"
       id="linearGradient21382-5"
       gradientUnits="userSpaceOnUse"
       gradientTransform="matrix(-4.2169707,0,0,-8.3518635,2039.5961,1612.529)"
       x1="473.41205"
       y1="73.566734"
       x2="473.41205"
       y2="67.102608" />
    <linearGradient
       id="linearGradient18264-02-5-9-2-8">
      <stop
         style="stop-color:#292929;stop-opacity:1;"
         offset="0"
         id="stop18266-978-6-5-1-9" />
      <stop
         style="stop-color:#9a9a9a;stop-opacity:0.47187501;"
         offset="1"
         id="stop18268-1-4-6-6-8" />
    </linearGradient>
    <linearGradient
       inkscape:collect="always"
       xlink:href="#linearGradient18264-02-5-9-0-7-1"
       id="linearGradient14867"
       gradientUnits="userSpaceOnUse"
       gradientTransform="matrix(6.3760015,0,0,12.627902,-2940.0473,122.86938)"
       x1="472.55441"
       y1="67.070892"
       x2="472.55441"
       y2="73.617867" />
    <linearGradient
       id="linearGradient18264-02-5-9-0-7-1">
      <stop
         style="stop-color:#292929;stop-opacity:1;"
         offset="0"
         id="stop18266-978-6-5-7-9-4" />
      <stop
         style="stop-color:#9a9a9a;stop-opacity:0.47187501;"
         offset="1"
         id="stop18268-1-4-6-7-2-2" />
    </linearGradient>
    <linearGradient
       inkscape:collect="always"
       xlink:href="#linearGradient20647-0-1-0"
       id="linearGradient14870-3"
       gradientUnits="userSpaceOnUse"
       x1="350.09854"
       y1="224.3719"
       x2="336.39886"
       y2="207.00343"
       gradientTransform="matrix(3.6824347,0,0,3.6824347,-695.69298,-5.7952918)" />
    <linearGradient
       id="linearGradient20647-0-1-0">
      <stop
         style="stop-color:#1b8600;stop-opacity:1;"
         offset="0"
         id="stop20649-2-7-9" />
      <stop
         style="stop-color:#1b5d0b;stop-opacity:1;"
         offset="1"
         id="stop20651-8-2-0" />
    </linearGradient>
    <linearGradient
       inkscape:collect="always"
       xlink:href="#linearGradient20647-0-1-0"
       id="linearGradient14872-9"
       gradientUnits="userSpaceOnUse"
       x1="350.09854"
       y1="224.3719"
       x2="336.39886"
       y2="207.00343"
       gradientTransform="matrix(3.6824347,0,0,3.6824347,-695.69298,-5.7952918)" />
    <linearGradient
       id="linearGradient49227">
      <stop
         style="stop-color:#123e07;stop-opacity:1;"
         offset="0"
         id="stop49229" />
      <stop
         style="stop-color:#1b5d0b;stop-opacity:1;"
         offset="1"
         id="stop49231" />
    </linearGradient>
    <linearGradient
       y2="207.00343"
       x2="336.39886"
       y1="224.3719"
       x1="350.09854"
       gradientTransform="matrix(5.5677904,0,0,5.5677904,-1835.0164,-198.14603)"
       gradientUnits="userSpaceOnUse"
       id="linearGradient49238"
       xlink:href="#linearGradient20647-0-1-0"
       inkscape:collect="always" />
    <linearGradient
       y2="207.00343"
       x2="336.39886"
       y1="224.3719"
       x1="350.09854"
       gradientTransform="matrix(5.5677904,0,0,5.5677904,-1835.0164,-198.14603)"
       gradientUnits="userSpaceOnUse"
       id="linearGradient49240"
       xlink:href="#linearGradient20647-0-1-0"
       inkscape:collect="always" />
  </defs>
  <sodipodi:namedview
     id="base"
     pagecolor="#ffffff"
     bordercolor="#666666"
     borderopacity="1.0"
     inkscape:pageopacity="0.0"
     inkscape:pageshadow="2"
     inkscape:zoom="3.959798"
     inkscape:cx="-2.8295806"
     inkscape:cy="60.016559"
     inkscape:document-units="px"
     inkscape:current-layer="layer1"
     showgrid="false"
     inkscape:window-width="1920"
     inkscape:window-height="1011"
     inkscape:window-x="-3"
     inkscape:window-y="-3"
     inkscape:window-maximized="1" />
  <metadata
     id="metadata48877">
    <rdf:RDF>
      <cc:Work
         rdf:about="">
        <dc:format>image/svg+xml</dc:format>
        <dc:type
           rdf:resource="http://purl.org/dc/dcmitype/StillImage" />
        <dc:title />
      </cc:Work>
    </rdf:RDF>
  </metadata>
  <g
     inkscape:label="Layer 1"
     inkscape:groupmode="layer"
     id="layer1"
     transform="translate(0,-969.36218)">
    <rect
       style="fill:url(#linearGradient49238);fill-opacity:1.0;fill-rule:nonzero;stroke:url(#linearGradient49240);stroke-width:11.87299999999999933;stroke-linejoin:round;stroke-miterlimit:4;stroke-opacity:1;stroke-dasharray:none"
       id="rect23021-5-0-2-7-1-5"
       width="128.73022"
       height="69.022125"
       x="7.5968332"
       y="976.58038"
       inkscape:export-filename="/home/pv/Projects/mpu.22220/src/GUI/images/capacity-on.png"
       inkscape:export-xdpi="90"
       inkscape:export-ydpi="90" />
    <path
       style="fill:none;stroke:url(#linearGradient14867);stroke-width:0.89730448;stroke-miterlimit:4;stroke-opacity:1;stroke-dasharray:none"
       d="m 7.8543216,1051.8254 c -4.6444891,-0.1134 -4.4105848,-0.05 -5.4050484,-1.5292 -0.6187501,-0.9205 -1.0367236,-1.9323 -1.3567053,-3.2834 l -0.23996735,-1.0134 -0.0674346,-30.9777 C 0.7156146,982.30007 0.75734542,976.57145 1.0902848,975.165 c 0.4732517,-2.01351 1.2086516,-3.50241 2.2538877,-4.55891 l 0.4732668,-0.47659 67.8208677,0.05 67.820703,0.05 0.54843,0.50891 c 0.70526,0.65549 1.66838,2.50522 2.12884,4.08888 l 0.36135,1.2436 0,34.81891 0,34.8191 -0.32349,1.3162 c -0.40979,1.6633 -1.31606,3.4866 -2.16247,4.3481 l -0.62983,0.6416 -63.671255,-0.044 c -35.01928,-0.027 -65.554219,-0.091 -67.8555528,-0.1481 z"
       id="path18262-5-8-0-3-6"
       inkscape:connector-curvature="0"
       inkscape:export-filename="/home/pv/Projects/mpu.22220/src/GUI/images/capacity-on.png"
       inkscape:export-xdpi="90"
       inkscape:export-ydpi="90" />
    <text
       xml:space="preserve"
       style="font-size:23.59297943px;font-style:normal;font-variant:normal;font-weight:normal;font-stretch:normal;text-align:center;line-height:125%;letter-spacing:0px;word-spacing:0px;text-anchor:middle;fill:#d6d6d6;fill-opacity:1;stroke:none;font-family:Nimbus Sans L;-inkscape-font-specification:Nimbus Sans L"
       x="71.816193"
       y="1002.3738"
       id="text2991-1-1-58-4-9-5-3-4-4-6-6-3"
       sodipodi:linespacing="125%"
       inkscape:export-filename="/home/pv/Projects/mpu.22220/src/GUI/images/capacity-on.png"
       inkscape:export-xdpi="90"
       inkscape:export-ydpi="90"><tspan
         sodipodi:role="line"
         id="tspan2993-42-1-5-69-7-4-4-8-0-7-2-7"
         x="75.087875"
         y="1002.3738">Емкость </tspan><tspan
         sodipodi:role="line"
         x="71.816193"
         y="1031.8651"
         id="tspan18404-1-6-4-0">заряжена</tspan></text>
  </g>
</svg>
