<?xml version="1.0" encoding="UTF-8" standalone="no"?>
<!-- Created with Inkscape (http://www.inkscape.org/) -->

<svg
   xmlns:dc="http://purl.org/dc/elements/1.1/"
   xmlns:cc="http://creativecommons.org/ns#"
   xmlns:rdf="http://www.w3.org/1999/02/22-rdf-syntax-ns#"
   xmlns:svg="http://www.w3.org/2000/svg"
   xmlns="http://www.w3.org/2000/svg"
   xmlns:xlink="http://www.w3.org/1999/xlink"
   xmlns:sodipodi="http://sodipodi.sourceforge.net/DTD/sodipodi-0.dtd"
   xmlns:inkscape="http://www.inkscape.org/namespaces/inkscape"
   width="108.8"
   height="112"
   id="svg5660"
   version="1.1"
   inkscape:version="0.92.1 r"
   sodipodi:docname="BV_red_F.svg">
  <defs
     id="defs5662">
    <linearGradient
       inkscape:collect="always"
       id="linearGradient8572-3">
      <stop
         style="stop-color:#800000;stop-opacity:1"
         offset="0"
         id="stop8568" />
      <stop
         style="stop-color:#b00606;stop-opacity:1"
         offset="1"
         id="stop8570" />
    </linearGradient>
    <linearGradient
       inkscape:collect="always"
       xlink:href="#linearGradient7515-6-8-7-5-46-1"
       id="linearGradient21497-2-8"
       gradientUnits="userSpaceOnUse"
       x1="-739.45844"
       y1="-0.50000149"
       x2="-721.54156"
       y2="-0.50000149" />
    <linearGradient
       id="linearGradient7515-6-8-7-5-46-1">
      <stop
         style="stop-color:#09540e;stop-opacity:1;"
         offset="0"
         id="stop7517-0-9-9-9-1-2" />
      <stop
         style="stop-color:#1c8226;stop-opacity:1;"
         offset="1"
         id="stop7519-5-0-64-7-6-6" />
    </linearGradient>
    <linearGradient
       id="linearGradient5610">
      <stop
         style="stop-color:#09540e;stop-opacity:1;"
         offset="0"
         id="stop5612" />
      <stop
         style="stop-color:#1c8226;stop-opacity:1;"
         offset="1"
         id="stop5614" />
    </linearGradient>
    <linearGradient
       id="linearGradient5617">
      <stop
         style="stop-color:#09540e;stop-opacity:1;"
         offset="0"
         id="stop5619" />
      <stop
         style="stop-color:#1c8226;stop-opacity:1;"
         offset="1"
         id="stop5621" />
    </linearGradient>
    <linearGradient
       id="linearGradient5624">
      <stop
         style="stop-color:#09540e;stop-opacity:1;"
         offset="0"
         id="stop5626" />
      <stop
         style="stop-color:#1c8226;stop-opacity:1;"
         offset="1"
         id="stop5628" />
    </linearGradient>
    <linearGradient
       id="linearGradient10101-1-8-9-6-7-0-3">
      <stop
         style="stop-color:#ffffff;stop-opacity:1;"
         offset="0"
         id="stop10103-9-6-9-6-8-8-4" />
      <stop
         style="stop-color:#ffffff;stop-opacity:0;"
         offset="1"
         id="stop10105-2-2-1-1-3-6-2" />
    </linearGradient>
    <linearGradient
       y2="-0.50000149"
       x2="-721.54156"
       y1="-0.50000149"
       x1="-739.45844"
       gradientUnits="userSpaceOnUse"
       id="linearGradient22613-6-4"
       xlink:href="#linearGradient7515-6-8-7-5-42-0-8"
       inkscape:collect="always" />
    <linearGradient
       id="linearGradient7515-6-8-7-5-42-0-8">
      <stop
         style="stop-color:#89780e;stop-opacity:1;"
         offset="0"
         id="stop7517-0-9-9-9-6-1-5" />
      <stop
         style="stop-color:#c2cb16;stop-opacity:1;"
         offset="1"
         id="stop7519-5-0-64-7-7-8-5" />
    </linearGradient>
    <linearGradient
       inkscape:collect="always"
       xlink:href="#linearGradient7515-6-8-7-5-42-0-8"
       id="linearGradient21495-3-9-6"
       gradientUnits="userSpaceOnUse"
       x1="-739.45844"
       y1="-0.50000149"
       x2="-721.54156"
       y2="-0.50000149" />
    <linearGradient
       id="linearGradient5759">
      <stop
         style="stop-color:#89780e;stop-opacity:1;"
         offset="0"
         id="stop5761" />
      <stop
         style="stop-color:#c2cb16;stop-opacity:1;"
         offset="1"
         id="stop5763" />
    </linearGradient>
    <linearGradient
       inkscape:collect="always"
       xlink:href="#linearGradient7515-6-8-7-5-42-0-8"
       id="linearGradient25357-5"
       gradientUnits="userSpaceOnUse"
       gradientTransform="matrix(3.3505257,0,0,3.3505257,2464.5788,956.55084)"
       x1="-739.45844"
       y1="-0.50000149"
       x2="-721.54156"
       y2="-0.50000149" />
    <linearGradient
       id="linearGradient5766">
      <stop
         style="stop-color:#89780e;stop-opacity:1;"
         offset="0"
         id="stop5768" />
      <stop
         style="stop-color:#c2cb16;stop-opacity:1;"
         offset="1"
         id="stop5770" />
    </linearGradient>
    <linearGradient
       inkscape:collect="always"
       xlink:href="#linearGradient7515-6-8-7-5-42-0-8"
       id="linearGradient25360-9"
       gradientUnits="userSpaceOnUse"
       gradientTransform="matrix(3.3505257,0,0,3.3505257,2464.5788,956.55084)"
       x1="-739.45844"
       y1="-0.50000149"
       x2="-721.54156"
       y2="-0.50000149" />
    <linearGradient
       id="linearGradient5773">
      <stop
         style="stop-color:#89780e;stop-opacity:1;"
         offset="0"
         id="stop5775" />
      <stop
         style="stop-color:#c2cb16;stop-opacity:1;"
         offset="1"
         id="stop5777" />
    </linearGradient>
    <linearGradient
       y2="-0.50000149"
       x2="-721.54156"
       y1="-0.50000149"
       x1="-739.45844"
       gradientUnits="userSpaceOnUse"
       id="linearGradient5784"
       xlink:href="#linearGradient7515-6-8-7-5-42-0-8"
       inkscape:collect="always" />
    <linearGradient
       id="linearGradient7515-6-8-7-5-46-1-9">
      <stop
         style="stop-color:#4c4c4c;stop-opacity:1;"
         offset="0"
         id="stop7517-0-9-9-9-1-2-8" />
      <stop
         style="stop-color:#717171;stop-opacity:1;"
         offset="1"
         id="stop7519-5-0-64-7-6-6-7" />
    </linearGradient>
    <linearGradient
       id="linearGradient6010">
      <stop
         style="stop-color:#09540e;stop-opacity:1;"
         offset="0"
         id="stop6012" />
      <stop
         style="stop-color:#1c8226;stop-opacity:1;"
         offset="1"
         id="stop6014" />
    </linearGradient>
    <linearGradient
       id="linearGradient6017">
      <stop
         style="stop-color:#09540e;stop-opacity:1;"
         offset="0"
         id="stop6019" />
      <stop
         style="stop-color:#1c8226;stop-opacity:1;"
         offset="1"
         id="stop6021" />
    </linearGradient>
    <linearGradient
       id="linearGradient6024">
      <stop
         style="stop-color:#09540e;stop-opacity:1;"
         offset="0"
         id="stop6026" />
      <stop
         style="stop-color:#1c8226;stop-opacity:1;"
         offset="1"
         id="stop6028" />
    </linearGradient>
    <linearGradient
       id="linearGradient6031">
      <stop
         style="stop-color:#09540e;stop-opacity:1;"
         offset="0"
         id="stop6033" />
      <stop
         style="stop-color:#1c8226;stop-opacity:1;"
         offset="1"
         id="stop6035" />
    </linearGradient>
    <linearGradient
       id="linearGradient6038">
      <stop
         style="stop-color:#09540e;stop-opacity:1;"
         offset="0"
         id="stop6040" />
      <stop
         style="stop-color:#1c8226;stop-opacity:1;"
         offset="1"
         id="stop6042" />
    </linearGradient>
    <linearGradient
       id="linearGradient6045">
      <stop
         style="stop-color:#09540e;stop-opacity:1;"
         offset="0"
         id="stop6047" />
      <stop
         style="stop-color:#1c8226;stop-opacity:1;"
         offset="1"
         id="stop6049" />
    </linearGradient>
    <linearGradient
       id="linearGradient6052">
      <stop
         style="stop-color:#09540e;stop-opacity:1;"
         offset="0"
         id="stop6054" />
      <stop
         style="stop-color:#1c8226;stop-opacity:1;"
         offset="1"
         id="stop6056" />
    </linearGradient>
    <linearGradient
       id="linearGradient6059">
      <stop
         style="stop-color:#09540e;stop-opacity:1;"
         offset="0"
         id="stop6061" />
      <stop
         style="stop-color:#1c8226;stop-opacity:1;"
         offset="1"
         id="stop6063" />
    </linearGradient>
    <linearGradient
       inkscape:collect="always"
       xlink:href="#linearGradient7515-6-8-7-5-46-1-9"
       id="linearGradient21493-5-8"
       gradientUnits="userSpaceOnUse"
       gradientTransform="matrix(3.6380584,0,0,3.6380584,2281.3199,920.84108)"
       x1="-739.45844"
       y1="-0.50000149"
       x2="-721.54156"
       y2="-0.50000149" />
    <linearGradient
       id="linearGradient6066">
      <stop
         style="stop-color:#09540e;stop-opacity:1;"
         offset="0"
         id="stop6068" />
      <stop
         style="stop-color:#1c8226;stop-opacity:1;"
         offset="1"
         id="stop6070" />
    </linearGradient>
    <linearGradient
       inkscape:collect="always"
       xlink:href="#linearGradient8572-3"
       id="linearGradient6360"
       x1="-409.4606"
       y1="992.79895"
       x2="-364.86899"
       y2="992.79895"
       gradientUnits="userSpaceOnUse" />
    <linearGradient
       inkscape:collect="always"
       xlink:href="#linearGradient8572-3"
       id="linearGradient7265"
       x1="-409.4606"
       y1="992.79895"
       x2="-364.86899"
       y2="992.79895"
       gradientUnits="userSpaceOnUse" />
    <linearGradient
       inkscape:collect="always"
       xlink:href="#linearGradient8572-3"
       id="linearGradient8581"
       gradientUnits="userSpaceOnUse"
       x1="-423.12729"
       y1="1002.0776"
       x2="-347.99405"
       y2="1002.0776" />
  </defs>
  <sodipodi:namedview
     id="base"
     pagecolor="#ffffff"
     bordercolor="#666666"
     borderopacity="1.0"
     inkscape:pageopacity="0.0"
     inkscape:pageshadow="2"
     inkscape:zoom="5.6"
     inkscape:cx="22.923413"
     inkscape:cy="56.499513"
     inkscape:document-units="px"
     inkscape:current-layer="g21463-04-7"
     showgrid="false"
     inkscape:window-width="1920"
     inkscape:window-height="1013"
     inkscape:window-x="0"
     inkscape:window-y="0"
     inkscape:window-maximized="1" />
  <metadata
     id="metadata5665">
    <rdf:RDF>
      <cc:Work
         rdf:about="">
        <dc:format>image/svg+xml</dc:format>
        <dc:type
           rdf:resource="http://purl.org/dc/dcmitype/StillImage" />
        <dc:title></dc:title>
      </cc:Work>
    </rdf:RDF>
  </metadata>
  <g
     inkscape:label="Layer 1"
     inkscape:groupmode="layer"
     id="layer1"
     transform="translate(0,-1010.5197)">
    <g
       id="g21463-04-7"
       transform="matrix(1.4486739,0,0,1.4282027,612.95324,-364.42854)">
      <rect
         y="965.92511"
         x="-420.31897"
         height="72.304893"
         width="69.516594"
         id="rect6532-7-8-88-2-1-5-81-1-8-8"
         style="fill:none;stroke:url(#linearGradient8581);stroke-width:5.61665005;stroke-linecap:round;stroke-linejoin:round;stroke-miterlimit:4;stroke-dasharray:none;stroke-dashoffset:0;stroke-opacity:1;fill-opacity:1" />
      <text
         xml:space="preserve"
         style="font-style:normal;font-weight:normal;font-size:27.80863953px;line-height:1.25;font-family:sans-serif;letter-spacing:0px;word-spacing:0px;fill:url(#linearGradient6360);fill-opacity:1.0;stroke:url(#linearGradient7265)"
         x="-413.09961"
         y="1006.314"
         id="text1841"
         transform="scale(0.99290935,1.0071413)"><tspan
           sodipodi:role="line"
           id="tspan1839"
           x="-413.09961"
           y="1006.314"
           style="font-size:37.07818604px;fill-opacity:1.0;fill:url(#linearGradient6360);stroke:url(#linearGradient7265)">БВ</tspan></text>
    </g>
  </g>
</svg>
