<?xml version="1.0" encoding="UTF-8" standalone="no"?>
<!-- Created with Inkscape (http://www.inkscape.org/) -->

<svg
   xmlns:dc="http://purl.org/dc/elements/1.1/"
   xmlns:cc="http://creativecommons.org/ns#"
   xmlns:rdf="http://www.w3.org/1999/02/22-rdf-syntax-ns#"
   xmlns:svg="http://www.w3.org/2000/svg"
   xmlns="http://www.w3.org/2000/svg"
   xmlns:xlink="http://www.w3.org/1999/xlink"
   xmlns:sodipodi="http://sodipodi.sourceforge.net/DTD/sodipodi-0.dtd"
   xmlns:inkscape="http://www.inkscape.org/namespaces/inkscape"
   width="102"
   height="105"
   id="svg5660"
   version="1.1"
   inkscape:version="0.48.4 r9939"
   sodipodi:docname="p_green.svg">
  <defs
     id="defs5662">
    <linearGradient
       inkscape:collect="always"
       xlink:href="#linearGradient7515-6-8-7-5-46-1"
       id="linearGradient21497-2-8"
       gradientUnits="userSpaceOnUse"
       x1="-739.45844"
       y1="-0.50000149"
       x2="-721.54156"
       y2="-0.50000149" />
    <linearGradient
       id="linearGradient7515-6-8-7-5-46-1">
      <stop
         style="stop-color:#09540e;stop-opacity:1;"
         offset="0"
         id="stop7517-0-9-9-9-1-2" />
      <stop
         style="stop-color:#1c8226;stop-opacity:1;"
         offset="1"
         id="stop7519-5-0-64-7-6-6" />
    </linearGradient>
    <linearGradient
       id="linearGradient5610">
      <stop
         style="stop-color:#09540e;stop-opacity:1;"
         offset="0"
         id="stop5612" />
      <stop
         style="stop-color:#1c8226;stop-opacity:1;"
         offset="1"
         id="stop5614" />
    </linearGradient>
    <linearGradient
       id="linearGradient5617">
      <stop
         style="stop-color:#09540e;stop-opacity:1;"
         offset="0"
         id="stop5619" />
      <stop
         style="stop-color:#1c8226;stop-opacity:1;"
         offset="1"
         id="stop5621" />
    </linearGradient>
    <linearGradient
       id="linearGradient5624">
      <stop
         style="stop-color:#09540e;stop-opacity:1;"
         offset="0"
         id="stop5626" />
      <stop
         style="stop-color:#1c8226;stop-opacity:1;"
         offset="1"
         id="stop5628" />
    </linearGradient>
    <linearGradient
       id="linearGradient10101-1-8-9-6-7-0-3">
      <stop
         style="stop-color:#ffffff;stop-opacity:1;"
         offset="0"
         id="stop10103-9-6-9-6-8-8-4" />
      <stop
         style="stop-color:#ffffff;stop-opacity:0;"
         offset="1"
         id="stop10105-2-2-1-1-3-6-2" />
    </linearGradient>
    <linearGradient
       y2="-0.50000149"
       x2="-721.54156"
       y1="-0.50000149"
       x1="-739.45844"
       gradientUnits="userSpaceOnUse"
       id="linearGradient22613-6-4"
       xlink:href="#linearGradient7515-6-8-7-5-42-0-8"
       inkscape:collect="always" />
    <linearGradient
       id="linearGradient7515-6-8-7-5-42-0-8">
      <stop
         style="stop-color:#89780e;stop-opacity:1;"
         offset="0"
         id="stop7517-0-9-9-9-6-1-5" />
      <stop
         style="stop-color:#c2cb16;stop-opacity:1;"
         offset="1"
         id="stop7519-5-0-64-7-7-8-5" />
    </linearGradient>
    <linearGradient
       inkscape:collect="always"
       xlink:href="#linearGradient7515-6-8-7-5-42-0-8"
       id="linearGradient21495-3-9-6"
       gradientUnits="userSpaceOnUse"
       x1="-739.45844"
       y1="-0.50000149"
       x2="-721.54156"
       y2="-0.50000149" />
    <linearGradient
       id="linearGradient5759">
      <stop
         style="stop-color:#89780e;stop-opacity:1;"
         offset="0"
         id="stop5761" />
      <stop
         style="stop-color:#c2cb16;stop-opacity:1;"
         offset="1"
         id="stop5763" />
    </linearGradient>
    <linearGradient
       inkscape:collect="always"
       xlink:href="#linearGradient7515-6-8-7-5-42-0-8"
       id="linearGradient25357-5"
       gradientUnits="userSpaceOnUse"
       gradientTransform="matrix(3.3505257,0,0,3.3505257,2464.5788,956.55084)"
       x1="-739.45844"
       y1="-0.50000149"
       x2="-721.54156"
       y2="-0.50000149" />
    <linearGradient
       id="linearGradient5766">
      <stop
         style="stop-color:#89780e;stop-opacity:1;"
         offset="0"
         id="stop5768" />
      <stop
         style="stop-color:#c2cb16;stop-opacity:1;"
         offset="1"
         id="stop5770" />
    </linearGradient>
    <linearGradient
       inkscape:collect="always"
       xlink:href="#linearGradient7515-6-8-7-5-42-0-8"
       id="linearGradient25360-9"
       gradientUnits="userSpaceOnUse"
       gradientTransform="matrix(3.3505257,0,0,3.3505257,2464.5788,956.55084)"
       x1="-739.45844"
       y1="-0.50000149"
       x2="-721.54156"
       y2="-0.50000149" />
    <linearGradient
       id="linearGradient5773">
      <stop
         style="stop-color:#89780e;stop-opacity:1;"
         offset="0"
         id="stop5775" />
      <stop
         style="stop-color:#c2cb16;stop-opacity:1;"
         offset="1"
         id="stop5777" />
    </linearGradient>
    <linearGradient
       y2="-0.50000149"
       x2="-721.54156"
       y1="-0.50000149"
       x1="-739.45844"
       gradientUnits="userSpaceOnUse"
       id="linearGradient5784"
       xlink:href="#linearGradient7515-6-8-7-5-42-0-8"
       inkscape:collect="always" />
    <linearGradient
       inkscape:collect="always"
       xlink:href="#linearGradient7515-6-8-7-5-46-1-9"
       id="linearGradient23376-1-0"
       gradientUnits="userSpaceOnUse"
       x1="-739.45844"
       y1="-0.50000149"
       x2="-721.54156"
       y2="-0.50000149" />
    <linearGradient
       id="linearGradient7515-6-8-7-5-46-1-9">
      <stop
         style="stop-color:#09540e;stop-opacity:1;"
         offset="0"
         id="stop7517-0-9-9-9-1-2-8" />
      <stop
         style="stop-color:#1c8226;stop-opacity:1;"
         offset="1"
         id="stop7519-5-0-64-7-6-6-7" />
    </linearGradient>
    <linearGradient
       inkscape:collect="always"
       xlink:href="#linearGradient7515-6-8-7-5-46-1-9"
       id="linearGradient21475-0-3"
       gradientUnits="userSpaceOnUse"
       x1="-739.45844"
       y1="-0.50000149"
       x2="-721.54156"
       y2="-0.50000149" />
    <linearGradient
       id="linearGradient6010">
      <stop
         style="stop-color:#09540e;stop-opacity:1;"
         offset="0"
         id="stop6012" />
      <stop
         style="stop-color:#1c8226;stop-opacity:1;"
         offset="1"
         id="stop6014" />
    </linearGradient>
    <linearGradient
       inkscape:collect="always"
       xlink:href="#linearGradient7515-6-8-7-5-46-1-9"
       id="linearGradient21477-5-1"
       gradientUnits="userSpaceOnUse"
       x1="-739.45844"
       y1="-0.50000149"
       x2="-721.54156"
       y2="-0.50000149" />
    <linearGradient
       id="linearGradient6017">
      <stop
         style="stop-color:#09540e;stop-opacity:1;"
         offset="0"
         id="stop6019" />
      <stop
         style="stop-color:#1c8226;stop-opacity:1;"
         offset="1"
         id="stop6021" />
    </linearGradient>
    <linearGradient
       inkscape:collect="always"
       xlink:href="#linearGradient7515-6-8-7-5-46-1-9"
       id="linearGradient21479-3-5"
       gradientUnits="userSpaceOnUse"
       x1="-739.45844"
       y1="-0.50000149"
       x2="-721.54156"
       y2="-0.50000149" />
    <linearGradient
       id="linearGradient6024">
      <stop
         style="stop-color:#09540e;stop-opacity:1;"
         offset="0"
         id="stop6026" />
      <stop
         style="stop-color:#1c8226;stop-opacity:1;"
         offset="1"
         id="stop6028" />
    </linearGradient>
    <linearGradient
       inkscape:collect="always"
       xlink:href="#linearGradient7515-6-8-7-5-46-1-9"
       id="linearGradient21481-8-1"
       gradientUnits="userSpaceOnUse"
       x1="-739.45844"
       y1="-0.50000149"
       x2="-721.54156"
       y2="-0.50000149" />
    <linearGradient
       id="linearGradient6031">
      <stop
         style="stop-color:#09540e;stop-opacity:1;"
         offset="0"
         id="stop6033" />
      <stop
         style="stop-color:#1c8226;stop-opacity:1;"
         offset="1"
         id="stop6035" />
    </linearGradient>
    <linearGradient
       inkscape:collect="always"
       xlink:href="#linearGradient7515-6-8-7-5-46-1-9"
       id="linearGradient21483-5-2"
       gradientUnits="userSpaceOnUse"
       x1="-739.45844"
       y1="-0.50000149"
       x2="-721.54156"
       y2="-0.50000149" />
    <linearGradient
       id="linearGradient6038">
      <stop
         style="stop-color:#09540e;stop-opacity:1;"
         offset="0"
         id="stop6040" />
      <stop
         style="stop-color:#1c8226;stop-opacity:1;"
         offset="1"
         id="stop6042" />
    </linearGradient>
    <linearGradient
       inkscape:collect="always"
       xlink:href="#linearGradient7515-6-8-7-5-46-1-9"
       id="linearGradient21485-8-9"
       gradientUnits="userSpaceOnUse"
       x1="-739.45844"
       y1="-0.50000149"
       x2="-721.54156"
       y2="-0.50000149" />
    <linearGradient
       id="linearGradient6045">
      <stop
         style="stop-color:#09540e;stop-opacity:1;"
         offset="0"
         id="stop6047" />
      <stop
         style="stop-color:#1c8226;stop-opacity:1;"
         offset="1"
         id="stop6049" />
    </linearGradient>
    <linearGradient
       inkscape:collect="always"
       xlink:href="#linearGradient7515-6-8-7-5-46-1-9"
       id="linearGradient21487-0-9"
       gradientUnits="userSpaceOnUse"
       x1="-739.45844"
       y1="-0.50000149"
       x2="-721.54156"
       y2="-0.50000149" />
    <linearGradient
       id="linearGradient6052">
      <stop
         style="stop-color:#09540e;stop-opacity:1;"
         offset="0"
         id="stop6054" />
      <stop
         style="stop-color:#1c8226;stop-opacity:1;"
         offset="1"
         id="stop6056" />
    </linearGradient>
    <linearGradient
       inkscape:collect="always"
       xlink:href="#linearGradient7515-6-8-7-5-46-1-9"
       id="linearGradient21489-2-7"
       gradientUnits="userSpaceOnUse"
       x1="-739.45844"
       y1="-0.50000149"
       x2="-721.54156"
       y2="-0.50000149" />
    <linearGradient
       id="linearGradient6059">
      <stop
         style="stop-color:#09540e;stop-opacity:1;"
         offset="0"
         id="stop6061" />
      <stop
         style="stop-color:#1c8226;stop-opacity:1;"
         offset="1"
         id="stop6063" />
    </linearGradient>
    <linearGradient
       inkscape:collect="always"
       xlink:href="#linearGradient7515-6-8-7-5-46-1-9"
       id="linearGradient21493-5-8"
       gradientUnits="userSpaceOnUse"
       gradientTransform="matrix(3.6380584,0,0,3.6380584,2281.3199,920.84108)"
       x1="-739.45844"
       y1="-0.50000149"
       x2="-721.54156"
       y2="-0.50000149" />
    <linearGradient
       id="linearGradient6066">
      <stop
         style="stop-color:#09540e;stop-opacity:1;"
         offset="0"
         id="stop6068" />
      <stop
         style="stop-color:#1c8226;stop-opacity:1;"
         offset="1"
         id="stop6070" />
    </linearGradient>
    <linearGradient
       y2="-0.50000149"
       x2="-721.54156"
       y1="-0.50000149"
       x1="-739.45844"
       gradientTransform="matrix(5.4579016,0,0,5.4237469,3620.9092,893.65755)"
       gradientUnits="userSpaceOnUse"
       id="linearGradient6083"
       xlink:href="#linearGradient7515-6-8-7-5-46-1-9"
       inkscape:collect="always" />
  </defs>
  <sodipodi:namedview
     id="base"
     pagecolor="#ffffff"
     bordercolor="#666666"
     borderopacity="1.0"
     inkscape:pageopacity="0.0"
     inkscape:pageshadow="2"
     inkscape:zoom="2.8"
     inkscape:cx="-18.827065"
     inkscape:cy="-8.7333574"
     inkscape:document-units="px"
     inkscape:current-layer="g21463-04-7"
     showgrid="false"
     inkscape:window-width="1920"
     inkscape:window-height="1011"
     inkscape:window-x="-3"
     inkscape:window-y="-3"
     inkscape:window-maximized="1" />
  <metadata
     id="metadata5665">
    <rdf:RDF>
      <cc:Work
         rdf:about="">
        <dc:format>image/svg+xml</dc:format>
        <dc:type
           rdf:resource="http://purl.org/dc/dcmitype/StillImage" />
        <dc:title></dc:title>
      </cc:Work>
    </rdf:RDF>
  </metadata>
  <g
     inkscape:label="Layer 1"
     inkscape:groupmode="layer"
     id="layer1"
     transform="translate(0,-947.3622)">
    <g
       id="g21463-04-7"
       transform="matrix(1.4486739,0,0,1.4282027,574.64366,-341.65176)">
      <g
         transform="matrix(1.6165882,0,0,1.6064719,910.42994,1361.6356)"
         id="g6522-0-8-9-9-0-5-5-8-1-2"
         style="stroke:url(#linearGradient23376-1-0);stroke-opacity:1">
        <path
           style="fill:none;stroke:url(#linearGradient21475-0-3);stroke-width:1px;stroke-linecap:round;stroke-linejoin:round;stroke-opacity:1"
           d="m -789.68751,-277.375 0,27.3125"
           id="path6440-4-7-3-3-1-2-2-8-54-9"
           inkscape:connector-curvature="0" />
        <path
           style="fill:none;stroke:url(#linearGradient21477-5-1);stroke-width:1px;stroke-linecap:round;stroke-linejoin:round;stroke-opacity:1"
           d="m -787.75001,-277.40625 0,27.3125"
           id="path6440-3-5-6-1-6-6-4-82-6-8-1"
           inkscape:connector-curvature="0" />
        <path
           style="fill:none;stroke:url(#linearGradient21479-3-5);stroke-width:1px;stroke-linecap:round;stroke-linejoin:miter;stroke-opacity:1"
           d="m -787.43751,-268.125 7.4375,-9.4375"
           id="path6478-2-9-4-9-7-8-3-3-6-5"
           inkscape:connector-curvature="0" />
        <path
           style="fill:none;stroke:url(#linearGradient21481-8-1);stroke-width:1px;stroke-linecap:round;stroke-linejoin:miter;stroke-opacity:1"
           d="m -787.65626,-259.53125 7.4375,9.4375"
           id="path6478-8-6-7-1-6-7-2-7-4-3-3"
           inkscape:connector-curvature="0" />
        <path
           style="fill:none;stroke:url(#linearGradient21483-5-2);stroke-width:1px;stroke-linecap:round;stroke-linejoin:miter;stroke-opacity:1"
           d="m -789.81251,-249.9375 -4.125,0"
           id="path6498-9-4-7-0-2-8-8-0-1-8"
           inkscape:connector-curvature="0" />
        <path
           style="fill:none;stroke:url(#linearGradient21485-8-9);stroke-width:1px;stroke-linecap:round;stroke-linejoin:miter;stroke-opacity:1"
           d="m -787.27502,-259.08551 1.257,4.69118"
           id="path6500-9-1-47-8-3-6-9-9-3-8"
           inkscape:connector-curvature="0" />
        <path
           style="fill:none;stroke:url(#linearGradient21487-0-9);stroke-width:1px;stroke-linecap:round;stroke-linejoin:miter;stroke-opacity:1"
           d="m -783.57117,-257.01825 -4.13734,-2.54354"
           id="path6500-8-4-7-0-3-0-9-5-7-5-9"
           inkscape:connector-curvature="0" />
        <path
           sodipodi:type="arc"
           style="fill:none;stroke:url(#linearGradient21489-2-7);stroke-opacity:1"
           id="path6520-9-9-9-4-2-6-6-8-2-9"
           sodipodi:cx="-784.5"
           sodipodi:cy="-270.5"
           sodipodi:rx="17"
           sodipodi:ry="17"
           d="m -767.5,-270.5 c 0,9.38884 -7.61116,17 -17,17 -9.38884,0 -17,-7.61116 -17,-17 0,-9.38884 7.61116,-17 17,-17 9.38884,0 17,7.61116 17,17 z"
           transform="translate(-2.25,7.1250001)" />
      </g>
      <rect
         y="905.55481"
         x="-394.04904"
         height="67.785835"
         width="65.171806"
         id="rect6532-7-8-88-2-1-5-81-1-8-8"
         style="fill:none;stroke:url(#linearGradient6083);stroke-width:5.26579714;stroke-linecap:round;stroke-linejoin:round;stroke-miterlimit:4;stroke-opacity:1;stroke-dasharray:none;stroke-dashoffset:0" />
    </g>
  </g>
</svg>
