<?xml version="1.0" encoding="UTF-8" standalone="no"?>
<!-- Created with Inkscape (http://www.inkscape.org/) -->

<svg
   xmlns:dc="http://purl.org/dc/elements/1.1/"
   xmlns:cc="http://creativecommons.org/ns#"
   xmlns:rdf="http://www.w3.org/1999/02/22-rdf-syntax-ns#"
   xmlns:svg="http://www.w3.org/2000/svg"
   xmlns="http://www.w3.org/2000/svg"
   xmlns:xlink="http://www.w3.org/1999/xlink"
   xmlns:sodipodi="http://sodipodi.sourceforge.net/DTD/sodipodi-0.dtd"
   xmlns:inkscape="http://www.inkscape.org/namespaces/inkscape"
   width="68"
   height="70"
   id="svg5660"
   version="1.1"
   inkscape:version="0.48.4 r9939"
   sodipodi:docname="p_red.svg">
  <defs
     id="defs5662">
    <linearGradient
       id="linearGradient31947">
      <stop
         style="stop-color:#800000;stop-opacity:1;"
         offset="0"
         id="stop31949" />
      <stop
         style="stop-color:#b00606;stop-opacity:1;"
         offset="1"
         id="stop31951" />
    </linearGradient>
    <linearGradient
       inkscape:collect="always"
       xlink:href="#linearGradient7515-6-8-7-5-46-1"
       id="linearGradient21497-2-8"
       gradientUnits="userSpaceOnUse"
       x1="-739.45844"
       y1="-0.50000149"
       x2="-721.54156"
       y2="-0.50000149" />
    <linearGradient
       id="linearGradient7515-6-8-7-5-46-1">
      <stop
         style="stop-color:#09540e;stop-opacity:1;"
         offset="0"
         id="stop7517-0-9-9-9-1-2" />
      <stop
         style="stop-color:#1c8226;stop-opacity:1;"
         offset="1"
         id="stop7519-5-0-64-7-6-6" />
    </linearGradient>
    <linearGradient
       id="linearGradient5610">
      <stop
         style="stop-color:#09540e;stop-opacity:1;"
         offset="0"
         id="stop5612" />
      <stop
         style="stop-color:#1c8226;stop-opacity:1;"
         offset="1"
         id="stop5614" />
    </linearGradient>
    <linearGradient
       id="linearGradient5617">
      <stop
         style="stop-color:#09540e;stop-opacity:1;"
         offset="0"
         id="stop5619" />
      <stop
         style="stop-color:#1c8226;stop-opacity:1;"
         offset="1"
         id="stop5621" />
    </linearGradient>
    <linearGradient
       id="linearGradient5624">
      <stop
         style="stop-color:#09540e;stop-opacity:1;"
         offset="0"
         id="stop5626" />
      <stop
         style="stop-color:#1c8226;stop-opacity:1;"
         offset="1"
         id="stop5628" />
    </linearGradient>
    <linearGradient
       id="linearGradient10101-1-8-9-6-7-0-3">
      <stop
         style="stop-color:#ffffff;stop-opacity:1;"
         offset="0"
         id="stop10103-9-6-9-6-8-8-4" />
      <stop
         style="stop-color:#ffffff;stop-opacity:0;"
         offset="1"
         id="stop10105-2-2-1-1-3-6-2" />
    </linearGradient>
    <linearGradient
       y2="-0.50000149"
       x2="-721.54156"
       y1="-0.50000149"
       x1="-739.45844"
       gradientUnits="userSpaceOnUse"
       id="linearGradient22613-6-4"
       xlink:href="#linearGradient7515-6-8-7-5-42-0-8"
       inkscape:collect="always" />
    <linearGradient
       id="linearGradient7515-6-8-7-5-42-0-8">
      <stop
         style="stop-color:#89780e;stop-opacity:1;"
         offset="0"
         id="stop7517-0-9-9-9-6-1-5" />
      <stop
         style="stop-color:#c2cb16;stop-opacity:1;"
         offset="1"
         id="stop7519-5-0-64-7-7-8-5" />
    </linearGradient>
    <linearGradient
       id="linearGradient5759">
      <stop
         style="stop-color:#89780e;stop-opacity:1;"
         offset="0"
         id="stop5761" />
      <stop
         style="stop-color:#c2cb16;stop-opacity:1;"
         offset="1"
         id="stop5763" />
    </linearGradient>
    <linearGradient
       id="linearGradient5766">
      <stop
         style="stop-color:#89780e;stop-opacity:1;"
         offset="0"
         id="stop5768" />
      <stop
         style="stop-color:#c2cb16;stop-opacity:1;"
         offset="1"
         id="stop5770" />
    </linearGradient>
    <linearGradient
       id="linearGradient5773">
      <stop
         style="stop-color:#89780e;stop-opacity:1;"
         offset="0"
         id="stop5775" />
      <stop
         style="stop-color:#c2cb16;stop-opacity:1;"
         offset="1"
         id="stop5777" />
    </linearGradient>
    <linearGradient
       inkscape:collect="always"
       xlink:href="#linearGradient7515-6-8-7-5-46-1-9"
       id="linearGradient23376-1-0"
       gradientUnits="userSpaceOnUse"
       x1="-739.45844"
       y1="-0.50000149"
       x2="-721.54156"
       y2="-0.50000149" />
    <linearGradient
       id="linearGradient7515-6-8-7-5-46-1-9">
      <stop
         style="stop-color:#09540e;stop-opacity:1;"
         offset="0"
         id="stop7517-0-9-9-9-1-2-8" />
      <stop
         style="stop-color:#1c8226;stop-opacity:1;"
         offset="1"
         id="stop7519-5-0-64-7-6-6-7" />
    </linearGradient>
    <linearGradient
       inkscape:collect="always"
       xlink:href="#linearGradient7515-6-8-7-5-46-1-9"
       id="linearGradient21475-0-3"
       gradientUnits="userSpaceOnUse"
       x1="-739.45844"
       y1="-0.50000149"
       x2="-721.54156"
       y2="-0.50000149" />
    <linearGradient
       id="linearGradient6010">
      <stop
         style="stop-color:#09540e;stop-opacity:1;"
         offset="0"
         id="stop6012" />
      <stop
         style="stop-color:#1c8226;stop-opacity:1;"
         offset="1"
         id="stop6014" />
    </linearGradient>
    <linearGradient
       inkscape:collect="always"
       xlink:href="#linearGradient7515-6-8-7-5-46-1-9"
       id="linearGradient21477-5-1"
       gradientUnits="userSpaceOnUse"
       x1="-739.45844"
       y1="-0.50000149"
       x2="-721.54156"
       y2="-0.50000149" />
    <linearGradient
       id="linearGradient6017">
      <stop
         style="stop-color:#09540e;stop-opacity:1;"
         offset="0"
         id="stop6019" />
      <stop
         style="stop-color:#1c8226;stop-opacity:1;"
         offset="1"
         id="stop6021" />
    </linearGradient>
    <linearGradient
       inkscape:collect="always"
       xlink:href="#linearGradient7515-6-8-7-5-46-1-9"
       id="linearGradient21479-3-5"
       gradientUnits="userSpaceOnUse"
       x1="-739.45844"
       y1="-0.50000149"
       x2="-721.54156"
       y2="-0.50000149" />
    <linearGradient
       id="linearGradient6024">
      <stop
         style="stop-color:#09540e;stop-opacity:1;"
         offset="0"
         id="stop6026" />
      <stop
         style="stop-color:#1c8226;stop-opacity:1;"
         offset="1"
         id="stop6028" />
    </linearGradient>
    <linearGradient
       inkscape:collect="always"
       xlink:href="#linearGradient7515-6-8-7-5-46-1-9"
       id="linearGradient21481-8-1"
       gradientUnits="userSpaceOnUse"
       x1="-739.45844"
       y1="-0.50000149"
       x2="-721.54156"
       y2="-0.50000149" />
    <linearGradient
       id="linearGradient6031">
      <stop
         style="stop-color:#09540e;stop-opacity:1;"
         offset="0"
         id="stop6033" />
      <stop
         style="stop-color:#1c8226;stop-opacity:1;"
         offset="1"
         id="stop6035" />
    </linearGradient>
    <linearGradient
       inkscape:collect="always"
       xlink:href="#linearGradient7515-6-8-7-5-46-1-9"
       id="linearGradient21483-5-2"
       gradientUnits="userSpaceOnUse"
       x1="-739.45844"
       y1="-0.50000149"
       x2="-721.54156"
       y2="-0.50000149" />
    <linearGradient
       id="linearGradient6038">
      <stop
         style="stop-color:#09540e;stop-opacity:1;"
         offset="0"
         id="stop6040" />
      <stop
         style="stop-color:#1c8226;stop-opacity:1;"
         offset="1"
         id="stop6042" />
    </linearGradient>
    <linearGradient
       inkscape:collect="always"
       xlink:href="#linearGradient7515-6-8-7-5-46-1-9"
       id="linearGradient21485-8-9"
       gradientUnits="userSpaceOnUse"
       x1="-739.45844"
       y1="-0.50000149"
       x2="-721.54156"
       y2="-0.50000149" />
    <linearGradient
       id="linearGradient6045">
      <stop
         style="stop-color:#09540e;stop-opacity:1;"
         offset="0"
         id="stop6047" />
      <stop
         style="stop-color:#1c8226;stop-opacity:1;"
         offset="1"
         id="stop6049" />
    </linearGradient>
    <linearGradient
       inkscape:collect="always"
       xlink:href="#linearGradient7515-6-8-7-5-46-1-9"
       id="linearGradient21487-0-9"
       gradientUnits="userSpaceOnUse"
       x1="-739.45844"
       y1="-0.50000149"
       x2="-721.54156"
       y2="-0.50000149" />
    <linearGradient
       id="linearGradient6052">
      <stop
         style="stop-color:#09540e;stop-opacity:1;"
         offset="0"
         id="stop6054" />
      <stop
         style="stop-color:#1c8226;stop-opacity:1;"
         offset="1"
         id="stop6056" />
    </linearGradient>
    <linearGradient
       inkscape:collect="always"
       xlink:href="#linearGradient7515-6-8-7-5-46-1-9"
       id="linearGradient21489-2-7"
       gradientUnits="userSpaceOnUse"
       x1="-739.45844"
       y1="-0.50000149"
       x2="-721.54156"
       y2="-0.50000149" />
    <linearGradient
       id="linearGradient6059">
      <stop
         style="stop-color:#09540e;stop-opacity:1;"
         offset="0"
         id="stop6061" />
      <stop
         style="stop-color:#1c8226;stop-opacity:1;"
         offset="1"
         id="stop6063" />
    </linearGradient>
    <linearGradient
       inkscape:collect="always"
       xlink:href="#linearGradient7515-6-8-7-5-46-1-9"
       id="linearGradient21493-5-8"
       gradientUnits="userSpaceOnUse"
       gradientTransform="matrix(3.6380584,0,0,3.6380584,2281.3199,920.84108)"
       x1="-739.45844"
       y1="-0.50000149"
       x2="-721.54156"
       y2="-0.50000149" />
    <linearGradient
       id="linearGradient6066">
      <stop
         style="stop-color:#09540e;stop-opacity:1;"
         offset="0"
         id="stop6068" />
      <stop
         style="stop-color:#1c8226;stop-opacity:1;"
         offset="1"
         id="stop6070" />
    </linearGradient>
    <linearGradient
       y2="-0.50000149"
       x2="-721.54156"
       y1="-0.50000149"
       x1="-739.45844"
       gradientTransform="matrix(3.6380584,0,0,3.6380584,2281.3199,920.84108)"
       gradientUnits="userSpaceOnUse"
       id="linearGradient6083"
       xlink:href="#linearGradient7515-6-8-7-5-46-1-9"
       inkscape:collect="always" />
    <linearGradient
       inkscape:collect="always"
       xlink:href="#linearGradient7515-6-8-7-5-42-0-8-5"
       id="linearGradient25544-6"
       gradientUnits="userSpaceOnUse"
       gradientTransform="matrix(2.5758507,0,0,2.5758507,2034.249,942.31135)"
       x1="-739.45844"
       y1="-0.50000149"
       x2="-721.54156"
       y2="-0.50000149" />
    <linearGradient
       id="linearGradient7515-6-8-7-5-42-0-8-5">
      <stop
         style="stop-color:#89780e;stop-opacity:1;"
         offset="0"
         id="stop7517-0-9-9-9-6-1-5-3" />
      <stop
         style="stop-color:#c2cb16;stop-opacity:1;"
         offset="1"
         id="stop7519-5-0-64-7-7-8-5-4" />
    </linearGradient>
    <linearGradient
       y2="-0.50000149"
       x2="-721.54156"
       y1="-0.50000149"
       x1="-739.45844"
       gradientTransform="matrix(2.5758507,0,0,2.5758507,1866.7088,1016.5083)"
       gradientUnits="userSpaceOnUse"
       id="linearGradient6247"
       xlink:href="#linearGradient7515-6-8-7-5-42-0-8-5"
       inkscape:collect="always" />
    <linearGradient
       id="linearGradient7515-6-8-7-5-42-0-8-4">
      <stop
         style="stop-color:#89780e;stop-opacity:1;"
         offset="0"
         id="stop7517-0-9-9-9-6-1-5-0" />
      <stop
         style="stop-color:#c2cb16;stop-opacity:1;"
         offset="1"
         id="stop7519-5-0-64-7-7-8-5-7" />
    </linearGradient>
    <linearGradient
       id="linearGradient6281">
      <stop
         style="stop-color:#89780e;stop-opacity:1;"
         offset="0"
         id="stop6283" />
      <stop
         style="stop-color:#c2cb16;stop-opacity:1;"
         offset="1"
         id="stop6285" />
    </linearGradient>
    <linearGradient
       id="linearGradient6288">
      <stop
         style="stop-color:#89780e;stop-opacity:1;"
         offset="0"
         id="stop6290" />
      <stop
         style="stop-color:#c2cb16;stop-opacity:1;"
         offset="1"
         id="stop6292" />
    </linearGradient>
    <linearGradient
       id="linearGradient6295">
      <stop
         style="stop-color:#89780e;stop-opacity:1;"
         offset="0"
         id="stop6297" />
      <stop
         style="stop-color:#c2cb16;stop-opacity:1;"
         offset="1"
         id="stop6299" />
    </linearGradient>
    <linearGradient
       id="linearGradient6302">
      <stop
         style="stop-color:#89780e;stop-opacity:1;"
         offset="0"
         id="stop6304" />
      <stop
         style="stop-color:#c2cb16;stop-opacity:1;"
         offset="1"
         id="stop6306" />
    </linearGradient>
    <linearGradient
       id="linearGradient6309">
      <stop
         style="stop-color:#89780e;stop-opacity:1;"
         offset="0"
         id="stop6311" />
      <stop
         style="stop-color:#c2cb16;stop-opacity:1;"
         offset="1"
         id="stop6313" />
    </linearGradient>
    <linearGradient
       id="linearGradient6316">
      <stop
         style="stop-color:#89780e;stop-opacity:1;"
         offset="0"
         id="stop6318" />
      <stop
         style="stop-color:#c2cb16;stop-opacity:1;"
         offset="1"
         id="stop6320" />
    </linearGradient>
    <linearGradient
       id="linearGradient6323">
      <stop
         style="stop-color:#89780e;stop-opacity:1;"
         offset="0"
         id="stop6325" />
      <stop
         style="stop-color:#c2cb16;stop-opacity:1;"
         offset="1"
         id="stop6327" />
    </linearGradient>
    <linearGradient
       inkscape:collect="always"
       xlink:href="#linearGradient7515-6-8-7-5-42-0-8-4"
       id="linearGradient21489-8-4-5"
       gradientUnits="userSpaceOnUse"
       x1="-739.45844"
       y1="-0.50000149"
       x2="-721.54156"
       y2="-0.50000149" />
    <linearGradient
       id="linearGradient6330">
      <stop
         style="stop-color:#89780e;stop-opacity:1;"
         offset="0"
         id="stop6332" />
      <stop
         style="stop-color:#c2cb16;stop-opacity:1;"
         offset="1"
         id="stop6334" />
    </linearGradient>
    <linearGradient
       id="linearGradient6337">
      <stop
         style="stop-color:#89780e;stop-opacity:1;"
         offset="0"
         id="stop6339" />
      <stop
         style="stop-color:#c2cb16;stop-opacity:1;"
         offset="1"
         id="stop6341" />
    </linearGradient>
    <linearGradient
       inkscape:collect="always"
       xlink:href="#linearGradient31947"
       id="linearGradient31953"
       x1="-0.011648178"
       y1="1017.3477"
       x2="68.078819"
       y2="1017.3477"
       gradientUnits="userSpaceOnUse" />
    <linearGradient
       inkscape:collect="always"
       xlink:href="#linearGradient31947"
       id="linearGradient31955"
       x1="-804.53186"
       y1="-263.375"
       x2="-768.96814"
       y2="-263.375"
       gradientUnits="userSpaceOnUse" />
  </defs>
  <sodipodi:namedview
     id="base"
     pagecolor="#ffffff"
     bordercolor="#666666"
     borderopacity="1.0"
     inkscape:pageopacity="0.0"
     inkscape:pageshadow="2"
     inkscape:zoom="2.8"
     inkscape:cx="-70.538969"
     inkscape:cy="31.398211"
     inkscape:document-units="px"
     inkscape:current-layer="layer1"
     showgrid="false"
     inkscape:window-width="1680"
     inkscape:window-height="1026"
     inkscape:window-x="1917"
     inkscape:window-y="-3"
     inkscape:window-maximized="1" />
  <metadata
     id="metadata5665">
    <rdf:RDF>
      <cc:Work
         rdf:about="">
        <dc:format>image/svg+xml</dc:format>
        <dc:type
           rdf:resource="http://purl.org/dc/dcmitype/StillImage" />
        <dc:title />
      </cc:Work>
    </rdf:RDF>
  </metadata>
  <g
     inkscape:label="Layer 1"
     inkscape:groupmode="layer"
     id="layer1"
     transform="translate(0,-982.3622)">
    <g
       style="fill:none;stroke:url(#linearGradient31955);stroke-width:1.56367349999999994;stroke-miterlimit:4;stroke-opacity:1;stroke-dasharray:none"
       id="g6522-0-8-9-9-0-5-5-8-7-5-4"
       transform="matrix(1.5635168,0,0,1.5326203,1264.1716,1420.1273)">
      <path
         inkscape:connector-curvature="0"
         id="path6440-4-7-3-3-1-2-2-8-3-1-0"
         d="m -789.68751,-277.375 0,27.3125"
         style="fill:none;stroke:url(#linearGradient31955);stroke-width:1.56367349999999994;stroke-linecap:round;stroke-linejoin:round;stroke-miterlimit:4;stroke-opacity:1;stroke-dasharray:none" />
      <path
         inkscape:connector-curvature="0"
         id="path6440-3-5-6-1-6-6-4-82-6-5-7-5"
         d="m -787.75001,-277.40625 0,27.3125"
         style="fill:none;stroke:url(#linearGradient31955);stroke-width:1.56367349999999994;stroke-linecap:round;stroke-linejoin:round;stroke-miterlimit:4;stroke-opacity:1;stroke-dasharray:none" />
      <path
         inkscape:connector-curvature="0"
         id="path6478-2-9-4-9-7-8-3-3-3-4-7"
         d="m -787.43751,-268.125 7.4375,-9.4375"
         style="fill:none;stroke:url(#linearGradient31955);stroke-width:1.56367349999999994;stroke-linecap:round;stroke-linejoin:miter;stroke-miterlimit:4;stroke-opacity:1;stroke-dasharray:none" />
      <path
         inkscape:connector-curvature="0"
         id="path6478-8-6-7-1-6-7-2-7-4-0-0-9"
         d="m -787.65626,-259.53125 7.4375,9.4375"
         style="fill:none;stroke:url(#linearGradient31955);stroke-width:1.56367349999999994;stroke-linecap:round;stroke-linejoin:miter;stroke-miterlimit:4;stroke-opacity:1;stroke-dasharray:none" />
      <path
         inkscape:connector-curvature="0"
         id="path6498-9-4-7-0-2-8-8-0-8-4-6"
         d="m -789.81251,-249.9375 -4.125,0"
         style="fill:none;stroke:url(#linearGradient31955);stroke-width:1.56367349999999994;stroke-linecap:round;stroke-linejoin:miter;stroke-miterlimit:4;stroke-opacity:1;stroke-dasharray:none" />
      <path
         inkscape:connector-curvature="0"
         id="path6500-9-1-47-8-3-6-9-9-2-8-3"
         d="m -787.27502,-259.08551 1.257,4.69118"
         style="fill:none;stroke:url(#linearGradient31955);stroke-width:1.56367349999999994;stroke-linecap:round;stroke-linejoin:miter;stroke-miterlimit:4;stroke-opacity:1;stroke-dasharray:none" />
      <path
         inkscape:connector-curvature="0"
         id="path6500-8-4-7-0-3-0-9-5-7-3-5-9"
         d="m -783.57117,-257.01825 -4.13734,-2.54354"
         style="fill:none;stroke:url(#linearGradient31955);stroke-width:1.56367349999999994;stroke-linecap:round;stroke-linejoin:miter;stroke-miterlimit:4;stroke-opacity:1;stroke-dasharray:none" />
      <path
         transform="translate(-2.25,7.1250001)"
         d="m -767.5,-270.5 c 0,9.38884 -7.61116,17 -17,17 -9.38884,0 -17,-7.61116 -17,-17 0,-9.38884 7.61116,-17 17,-17 9.38884,0 17,7.61116 17,17 z"
         sodipodi:ry="17"
         sodipodi:rx="17"
         sodipodi:cy="-270.5"
         sodipodi:cx="-784.5"
         id="path6520-9-9-9-4-2-6-6-8-8-7-1"
         style="fill:none;stroke:url(#linearGradient31955);stroke-width:1.56367349999999994;stroke-miterlimit:4;stroke-opacity:1;stroke-dasharray:none"
         sodipodi:type="arc" />
    </g>
    <rect
       style="fill:none;stroke:url(#linearGradient31953);stroke-width:5.05820559999999997;stroke-linecap:round;stroke-linejoin:round;stroke-miterlimit:4;stroke-opacity:1;stroke-dasharray:none;stroke-dashoffset:0"
       id="rect6532-7-8-88-2-1-5-81-1-5-8-6"
       width="63.032265"
       height="64.66964"
       x="2.5174546"
       y="985.01288" />
  </g>
</svg>
