<?xml version="1.0" encoding="UTF-8" standalone="no"?>
<!-- Created with Inkscape (http://www.inkscape.org/) -->

<svg
   xmlns:dc="http://purl.org/dc/elements/1.1/"
   xmlns:cc="http://creativecommons.org/ns#"
   xmlns:rdf="http://www.w3.org/1999/02/22-rdf-syntax-ns#"
   xmlns:svg="http://www.w3.org/2000/svg"
   xmlns="http://www.w3.org/2000/svg"
   xmlns:xlink="http://www.w3.org/1999/xlink"
   xmlns:sodipodi="http://sodipodi.sourceforge.net/DTD/sodipodi-0.dtd"
   xmlns:inkscape="http://www.inkscape.org/namespaces/inkscape"
   width="41"
   height="120"
   id="svg5660"
   version="1.1"
   inkscape:version="0.48.4 r9939"
   sodipodi:docname="q_red.svg">
  <defs
     id="defs5662">
    <linearGradient
       id="linearGradient4486">
      <stop
         style="stop-color:#800000;stop-opacity:1;"
         offset="0"
         id="stop4488" />
      <stop
         style="stop-color:#b00606;stop-opacity:1;"
         offset="1"
         id="stop4490" />
    </linearGradient>
    <linearGradient
       id="linearGradient4299">
      <stop
         style="stop-color:#4c4c4c;stop-opacity:1;"
         offset="0"
         id="stop4301" />
      <stop
         style="stop-color:#5b5b5b;stop-opacity:1;"
         offset="1"
         id="stop4303" />
    </linearGradient>
    <linearGradient
       id="linearGradient4291">
      <stop
         style="stop-color:#4c4c4c;stop-opacity:1;"
         offset="0"
         id="stop4293" />
      <stop
         style="stop-color:#5b5b5b;stop-opacity:1;"
         offset="1"
         id="stop4295" />
    </linearGradient>
    <linearGradient
       id="linearGradient4283">
      <stop
         style="stop-color:#4c4c4c;stop-opacity:1;"
         offset="0"
         id="stop4285" />
      <stop
         style="stop-color:#5b5b5b;stop-opacity:1;"
         offset="1"
         id="stop4287" />
    </linearGradient>
    <linearGradient
       id="linearGradient12700">
      <stop
         style="stop-color:#4c4c4c;stop-opacity:1;"
         offset="0"
         id="stop12702" />
      <stop
         style="stop-color:#6a6666;stop-opacity:1;"
         offset="1"
         id="stop12704" />
    </linearGradient>
    <linearGradient
       inkscape:collect="always"
       xlink:href="#linearGradient7515-6-8-7-5-46-1"
       id="linearGradient21497-2-8"
       gradientUnits="userSpaceOnUse"
       x1="-739.45844"
       y1="-0.50000149"
       x2="-721.54156"
       y2="-0.50000149" />
    <linearGradient
       id="linearGradient7515-6-8-7-5-46-1">
      <stop
         style="stop-color:#09540e;stop-opacity:1;"
         offset="0"
         id="stop7517-0-9-9-9-1-2" />
      <stop
         style="stop-color:#1c8226;stop-opacity:1;"
         offset="1"
         id="stop7519-5-0-64-7-6-6" />
    </linearGradient>
    <linearGradient
       id="linearGradient5610">
      <stop
         style="stop-color:#09540e;stop-opacity:1;"
         offset="0"
         id="stop5612" />
      <stop
         style="stop-color:#1c8226;stop-opacity:1;"
         offset="1"
         id="stop5614" />
    </linearGradient>
    <linearGradient
       id="linearGradient5617">
      <stop
         style="stop-color:#09540e;stop-opacity:1;"
         offset="0"
         id="stop5619" />
      <stop
         style="stop-color:#1c8226;stop-opacity:1;"
         offset="1"
         id="stop5621" />
    </linearGradient>
    <linearGradient
       id="linearGradient5624">
      <stop
         style="stop-color:#09540e;stop-opacity:1;"
         offset="0"
         id="stop5626" />
      <stop
         style="stop-color:#1c8226;stop-opacity:1;"
         offset="1"
         id="stop5628" />
    </linearGradient>
    <linearGradient
       id="linearGradient10101-1-8-9-6-7-0-3">
      <stop
         style="stop-color:#ffffff;stop-opacity:1;"
         offset="0"
         id="stop10103-9-6-9-6-8-8-4" />
      <stop
         style="stop-color:#ffffff;stop-opacity:0;"
         offset="1"
         id="stop10105-2-2-1-1-3-6-2" />
    </linearGradient>
    <linearGradient
       y2="-0.50000149"
       x2="-721.54156"
       y1="-0.50000149"
       x1="-739.45844"
       gradientUnits="userSpaceOnUse"
       id="linearGradient22613-6-4"
       xlink:href="#linearGradient7515-6-8-7-5-42-0-8"
       inkscape:collect="always" />
    <linearGradient
       id="linearGradient7515-6-8-7-5-42-0-8">
      <stop
         style="stop-color:#89780e;stop-opacity:1;"
         offset="0"
         id="stop7517-0-9-9-9-6-1-5" />
      <stop
         style="stop-color:#c2cb16;stop-opacity:1;"
         offset="1"
         id="stop7519-5-0-64-7-7-8-5" />
    </linearGradient>
    <linearGradient
       id="linearGradient5759">
      <stop
         style="stop-color:#89780e;stop-opacity:1;"
         offset="0"
         id="stop5761" />
      <stop
         style="stop-color:#c2cb16;stop-opacity:1;"
         offset="1"
         id="stop5763" />
    </linearGradient>
    <linearGradient
       id="linearGradient5766">
      <stop
         style="stop-color:#89780e;stop-opacity:1;"
         offset="0"
         id="stop5768" />
      <stop
         style="stop-color:#c2cb16;stop-opacity:1;"
         offset="1"
         id="stop5770" />
    </linearGradient>
    <linearGradient
       id="linearGradient5773">
      <stop
         style="stop-color:#89780e;stop-opacity:1;"
         offset="0"
         id="stop5775" />
      <stop
         style="stop-color:#c2cb16;stop-opacity:1;"
         offset="1"
         id="stop5777" />
    </linearGradient>
    <linearGradient
       inkscape:collect="always"
       xlink:href="#linearGradient7515-6-8-7-5-46-1-9"
       id="linearGradient23376-1-0"
       gradientUnits="userSpaceOnUse"
       x1="-739.45844"
       y1="-0.50000149"
       x2="-721.54156"
       y2="-0.50000149" />
    <linearGradient
       id="linearGradient7515-6-8-7-5-46-1-9">
      <stop
         style="stop-color:#09540e;stop-opacity:1;"
         offset="0"
         id="stop7517-0-9-9-9-1-2-8" />
      <stop
         style="stop-color:#1c8226;stop-opacity:1;"
         offset="1"
         id="stop7519-5-0-64-7-6-6-7" />
    </linearGradient>
    <linearGradient
       id="linearGradient6010">
      <stop
         style="stop-color:#09540e;stop-opacity:1;"
         offset="0"
         id="stop6012" />
      <stop
         style="stop-color:#1c8226;stop-opacity:1;"
         offset="1"
         id="stop6014" />
    </linearGradient>
    <linearGradient
       id="linearGradient6017">
      <stop
         style="stop-color:#09540e;stop-opacity:1;"
         offset="0"
         id="stop6019" />
      <stop
         style="stop-color:#1c8226;stop-opacity:1;"
         offset="1"
         id="stop6021" />
    </linearGradient>
    <linearGradient
       id="linearGradient6024">
      <stop
         style="stop-color:#09540e;stop-opacity:1;"
         offset="0"
         id="stop6026" />
      <stop
         style="stop-color:#1c8226;stop-opacity:1;"
         offset="1"
         id="stop6028" />
    </linearGradient>
    <linearGradient
       id="linearGradient6031">
      <stop
         style="stop-color:#09540e;stop-opacity:1;"
         offset="0"
         id="stop6033" />
      <stop
         style="stop-color:#1c8226;stop-opacity:1;"
         offset="1"
         id="stop6035" />
    </linearGradient>
    <linearGradient
       id="linearGradient6038">
      <stop
         style="stop-color:#09540e;stop-opacity:1;"
         offset="0"
         id="stop6040" />
      <stop
         style="stop-color:#1c8226;stop-opacity:1;"
         offset="1"
         id="stop6042" />
    </linearGradient>
    <linearGradient
       id="linearGradient6045">
      <stop
         style="stop-color:#09540e;stop-opacity:1;"
         offset="0"
         id="stop6047" />
      <stop
         style="stop-color:#1c8226;stop-opacity:1;"
         offset="1"
         id="stop6049" />
    </linearGradient>
    <linearGradient
       id="linearGradient6052">
      <stop
         style="stop-color:#09540e;stop-opacity:1;"
         offset="0"
         id="stop6054" />
      <stop
         style="stop-color:#1c8226;stop-opacity:1;"
         offset="1"
         id="stop6056" />
    </linearGradient>
    <linearGradient
       id="linearGradient6059">
      <stop
         style="stop-color:#09540e;stop-opacity:1;"
         offset="0"
         id="stop6061" />
      <stop
         style="stop-color:#1c8226;stop-opacity:1;"
         offset="1"
         id="stop6063" />
    </linearGradient>
    <linearGradient
       inkscape:collect="always"
       xlink:href="#linearGradient7515-6-8-7-5-46-1-9"
       id="linearGradient21493-5-8"
       gradientUnits="userSpaceOnUse"
       gradientTransform="matrix(3.6380584,0,0,3.6380584,2281.3199,920.84108)"
       x1="-739.45844"
       y1="-0.50000149"
       x2="-721.54156"
       y2="-0.50000149" />
    <linearGradient
       id="linearGradient6066">
      <stop
         style="stop-color:#09540e;stop-opacity:1;"
         offset="0"
         id="stop6068" />
      <stop
         style="stop-color:#1c8226;stop-opacity:1;"
         offset="1"
         id="stop6070" />
    </linearGradient>
    <linearGradient
       inkscape:collect="always"
       xlink:href="#linearGradient7515-6-8-7-5-42-0-8-5"
       id="linearGradient25544-6"
       gradientUnits="userSpaceOnUse"
       gradientTransform="matrix(2.5758507,0,0,2.5758507,2034.249,942.31135)"
       x1="-739.45844"
       y1="-0.50000149"
       x2="-721.54156"
       y2="-0.50000149" />
    <linearGradient
       id="linearGradient7515-6-8-7-5-42-0-8-5">
      <stop
         style="stop-color:#89780e;stop-opacity:1;"
         offset="0"
         id="stop7517-0-9-9-9-6-1-5-3" />
      <stop
         style="stop-color:#c2cb16;stop-opacity:1;"
         offset="1"
         id="stop7519-5-0-64-7-7-8-5-4" />
    </linearGradient>
    <linearGradient
       inkscape:collect="always"
       xlink:href="#linearGradient7515-6-8-7-5-42-0-8-4"
       id="linearGradient25541-8"
       gradientUnits="userSpaceOnUse"
       x1="-739.45844"
       y1="-0.50000149"
       x2="-721.54156"
       y2="-0.50000149" />
    <linearGradient
       id="linearGradient7515-6-8-7-5-42-0-8-4">
      <stop
         style="stop-color:#89780e;stop-opacity:1;"
         offset="0"
         id="stop7517-0-9-9-9-6-1-5-0" />
      <stop
         style="stop-color:#c2cb16;stop-opacity:1;"
         offset="1"
         id="stop7519-5-0-64-7-7-8-5-7" />
    </linearGradient>
    <linearGradient
       id="linearGradient6281">
      <stop
         style="stop-color:#89780e;stop-opacity:1;"
         offset="0"
         id="stop6283" />
      <stop
         style="stop-color:#c2cb16;stop-opacity:1;"
         offset="1"
         id="stop6285" />
    </linearGradient>
    <linearGradient
       id="linearGradient6288">
      <stop
         style="stop-color:#89780e;stop-opacity:1;"
         offset="0"
         id="stop6290" />
      <stop
         style="stop-color:#c2cb16;stop-opacity:1;"
         offset="1"
         id="stop6292" />
    </linearGradient>
    <linearGradient
       id="linearGradient6295">
      <stop
         style="stop-color:#89780e;stop-opacity:1;"
         offset="0"
         id="stop6297" />
      <stop
         style="stop-color:#c2cb16;stop-opacity:1;"
         offset="1"
         id="stop6299" />
    </linearGradient>
    <linearGradient
       id="linearGradient6302">
      <stop
         style="stop-color:#89780e;stop-opacity:1;"
         offset="0"
         id="stop6304" />
      <stop
         style="stop-color:#c2cb16;stop-opacity:1;"
         offset="1"
         id="stop6306" />
    </linearGradient>
    <linearGradient
       id="linearGradient6309">
      <stop
         style="stop-color:#89780e;stop-opacity:1;"
         offset="0"
         id="stop6311" />
      <stop
         style="stop-color:#c2cb16;stop-opacity:1;"
         offset="1"
         id="stop6313" />
    </linearGradient>
    <linearGradient
       id="linearGradient6316">
      <stop
         style="stop-color:#89780e;stop-opacity:1;"
         offset="0"
         id="stop6318" />
      <stop
         style="stop-color:#c2cb16;stop-opacity:1;"
         offset="1"
         id="stop6320" />
    </linearGradient>
    <linearGradient
       id="linearGradient6323">
      <stop
         style="stop-color:#89780e;stop-opacity:1;"
         offset="0"
         id="stop6325" />
      <stop
         style="stop-color:#c2cb16;stop-opacity:1;"
         offset="1"
         id="stop6327" />
    </linearGradient>
    <linearGradient
       inkscape:collect="always"
       xlink:href="#linearGradient7515-6-8-7-5-42-0-8-4"
       id="linearGradient21489-8-4-5"
       gradientUnits="userSpaceOnUse"
       x1="-739.45844"
       y1="-0.50000149"
       x2="-721.54156"
       y2="-0.50000149" />
    <linearGradient
       id="linearGradient6330">
      <stop
         style="stop-color:#89780e;stop-opacity:1;"
         offset="0"
         id="stop6332" />
      <stop
         style="stop-color:#c2cb16;stop-opacity:1;"
         offset="1"
         id="stop6334" />
    </linearGradient>
    <linearGradient
       id="linearGradient6337">
      <stop
         style="stop-color:#89780e;stop-opacity:1;"
         offset="0"
         id="stop6339" />
      <stop
         style="stop-color:#c2cb16;stop-opacity:1;"
         offset="1"
         id="stop6341" />
    </linearGradient>
    <linearGradient
       inkscape:collect="always"
       xlink:href="#linearGradient7515-6-8-7-5-9-8-0-3"
       id="linearGradient25313-1"
       gradientUnits="userSpaceOnUse"
       gradientTransform="matrix(2.2911625,0,0,2.2911625,1867.6597,988.04555)"
       x1="-739.45844"
       y1="-0.50000149"
       x2="-721.54156"
       y2="-0.50000149" />
    <linearGradient
       id="linearGradient7515-6-8-7-5-9-8-0-3">
      <stop
         style="stop-color:#09540e;stop-opacity:1;"
         offset="0"
         id="stop7517-0-9-9-9-7-0-4-6" />
      <stop
         style="stop-color:#1c8226;stop-opacity:1;"
         offset="1"
         id="stop7519-5-0-64-7-0-6-8-3" />
    </linearGradient>
    <linearGradient
       y2="-0.50000149"
       x2="-721.54156"
       y1="-0.50000149"
       x1="-739.45844"
       gradientTransform="matrix(2.2911625,0,0,2.2911625,1698.2742,1076.1781)"
       gradientUnits="userSpaceOnUse"
       id="linearGradient6499"
       xlink:href="#linearGradient7515-6-8-7-5-9-8-0-3"
       inkscape:collect="always" />
    <linearGradient
       id="linearGradient7515-6-8-7-5-46-1-96">
      <stop
         style="stop-color:#09540e;stop-opacity:1;"
         offset="0"
         id="stop7517-0-9-9-9-1-2-88" />
      <stop
         style="stop-color:#1c8226;stop-opacity:1;"
         offset="1"
         id="stop7519-5-0-64-7-6-6-0" />
    </linearGradient>
    <linearGradient
       inkscape:collect="always"
       xlink:href="#linearGradient7515-6-8-7-5-46-1-96"
       id="linearGradient25461-7"
       gradientUnits="userSpaceOnUse"
       gradientTransform="matrix(3.6951222,0,0,3.6951222,2735.2884,939.46745)"
       x1="-739.45844"
       y1="-0.50000149"
       x2="-721.54156"
       y2="-0.50000149" />
    <linearGradient
       id="linearGradient6558">
      <stop
         style="stop-color:#09540e;stop-opacity:1;"
         offset="0"
         id="stop6560" />
      <stop
         style="stop-color:#1c8226;stop-opacity:1;"
         offset="1"
         id="stop6562" />
    </linearGradient>
    <linearGradient
       id="linearGradient6565">
      <stop
         style="stop-color:#09540e;stop-opacity:1;"
         offset="0"
         id="stop6567" />
      <stop
         style="stop-color:#1c8226;stop-opacity:1;"
         offset="1"
         id="stop6569" />
    </linearGradient>
    <linearGradient
       id="linearGradient6572">
      <stop
         style="stop-color:#09540e;stop-opacity:1;"
         offset="0"
         id="stop6574" />
      <stop
         style="stop-color:#1c8226;stop-opacity:1;"
         offset="1"
         id="stop6576" />
    </linearGradient>
    <linearGradient
       id="linearGradient6579">
      <stop
         style="stop-color:#09540e;stop-opacity:1;"
         offset="0"
         id="stop6581" />
      <stop
         style="stop-color:#1c8226;stop-opacity:1;"
         offset="1"
         id="stop6583" />
    </linearGradient>
    <linearGradient
       gradientTransform="translate(-148.56903,185.61323)"
       inkscape:collect="always"
       xlink:href="#linearGradient7515-6-8-7-5-42-0-8-1"
       id="linearGradient6474"
       x1="162.19136"
       y1="817.77533"
       x2="189.36707"
       y2="817.77533"
       gradientUnits="userSpaceOnUse" />
    <linearGradient
       id="linearGradient7515-6-8-7-5-42-0-8-1">
      <stop
         style="stop-color:#89780e;stop-opacity:1;"
         offset="0"
         id="stop7517-0-9-9-9-6-1-5-6" />
      <stop
         style="stop-color:#c2cb16;stop-opacity:1;"
         offset="1"
         id="stop7519-5-0-64-7-7-8-5-2" />
    </linearGradient>
    <linearGradient
       inkscape:collect="always"
       xlink:href="#linearGradient7515-6-8-7-5-42-0-8-1"
       id="linearGradient25366-7"
       gradientUnits="userSpaceOnUse"
       gradientTransform="matrix(3.6951222,0,0,3.6951222,2859.4532,939.27035)"
       x1="-739.45844"
       y1="-0.50000149"
       x2="-721.54156"
       y2="-0.50000149" />
    <linearGradient
       id="linearGradient6839">
      <stop
         style="stop-color:#89780e;stop-opacity:1;"
         offset="0"
         id="stop6841" />
      <stop
         style="stop-color:#c2cb16;stop-opacity:1;"
         offset="1"
         id="stop6843" />
    </linearGradient>
    <linearGradient
       inkscape:collect="always"
       xlink:href="#linearGradient7515-6-8-7-5-42-0-8-1"
       id="linearGradient25363-8"
       gradientUnits="userSpaceOnUse"
       gradientTransform="matrix(3.7593083,0,0,3.8395409,2750.6327,1043.3152)"
       x1="-739.45844"
       y1="-0.50000149"
       x2="-721.54156"
       y2="-0.50000149" />
    <linearGradient
       id="linearGradient6846">
      <stop
         style="stop-color:#89780e;stop-opacity:1;"
         offset="0"
         id="stop6848" />
      <stop
         style="stop-color:#c2cb16;stop-opacity:1;"
         offset="1"
         id="stop6850" />
    </linearGradient>
    <linearGradient
       inkscape:collect="always"
       xlink:href="#linearGradient7515-6-8-7-5-42-0-8-1"
       id="linearGradient25483-9"
       gradientUnits="userSpaceOnUse"
       gradientTransform="matrix(1.7997511,0,0,1.7997511,1327.8373,1043.1363)"
       x1="-739.45844"
       y1="-0.50000149"
       x2="-721.54156"
       y2="-0.50000149" />
    <linearGradient
       id="linearGradient6853">
      <stop
         style="stop-color:#89780e;stop-opacity:1;"
         offset="0"
         id="stop6855" />
      <stop
         style="stop-color:#c2cb16;stop-opacity:1;"
         offset="1"
         id="stop6857" />
    </linearGradient>
    <linearGradient
       inkscape:collect="always"
       xlink:href="#linearGradient7515-6-8-7-5-42-0-8-1"
       id="linearGradient25475-6"
       gradientUnits="userSpaceOnUse"
       x1="-739.45844"
       y1="-0.50000149"
       x2="-721.54156"
       y2="-0.50000149" />
    <linearGradient
       id="linearGradient6860">
      <stop
         style="stop-color:#89780e;stop-opacity:1;"
         offset="0"
         id="stop6862" />
      <stop
         style="stop-color:#c2cb16;stop-opacity:1;"
         offset="1"
         id="stop6864" />
    </linearGradient>
    <linearGradient
       inkscape:collect="always"
       xlink:href="#linearGradient7515-6-8-7-5-42-0-8-1"
       id="linearGradient25479-5"
       gradientUnits="userSpaceOnUse"
       x1="-739.45844"
       y1="-0.50000149"
       x2="-721.54156"
       y2="-0.50000149" />
    <linearGradient
       id="linearGradient6867">
      <stop
         style="stop-color:#89780e;stop-opacity:1;"
         offset="0"
         id="stop6869" />
      <stop
         style="stop-color:#c2cb16;stop-opacity:1;"
         offset="1"
         id="stop6871" />
    </linearGradient>
    <linearGradient
       y2="-0.50000149"
       x2="-721.54156"
       y1="-0.50000149"
       x1="-739.45844"
       gradientTransform="matrix(3.6951222,0,0,3.6951222,2719.2116,1044.0637)"
       gradientUnits="userSpaceOnUse"
       id="linearGradient6879"
       xlink:href="#linearGradient7515-6-8-7-5-42-0-8-1"
       inkscape:collect="always" />
    <linearGradient
       id="linearGradient7515-6-8-7-5-4-7-3-8">
      <stop
         style="stop-color:#4c4c4c;stop-opacity:1;"
         offset="0"
         id="stop7517-0-9-9-9-8-5-5-3" />
      <stop
         style="stop-color:#6b6b6b;stop-opacity:1;"
         offset="1"
         id="stop7519-5-0-64-7-2-2-6-2" />
    </linearGradient>
    <linearGradient
       id="linearGradient7515-6-8-7-5-4-1-4-7-5">
      <stop
         style="stop-color:#4c4c4c;stop-opacity:1;"
         offset="0"
         id="stop7517-0-9-9-9-8-9-9-5-3" />
      <stop
         style="stop-color:#5b5b5b;stop-opacity:1;"
         offset="1"
         id="stop7519-5-0-64-7-2-9-3-1-5" />
    </linearGradient>
    <linearGradient
       id="linearGradient7515-6-8-7-5-43-8-0">
      <stop
         style="stop-color:#09540e;stop-opacity:1;"
         offset="0"
         id="stop7517-0-9-9-9-5-2-2" />
      <stop
         style="stop-color:#1c8226;stop-opacity:1;"
         offset="1"
         id="stop7519-5-0-64-7-3-92-1" />
    </linearGradient>
    <linearGradient
       id="linearGradient6990">
      <stop
         style="stop-color:#09540e;stop-opacity:1;"
         offset="0"
         id="stop6992" />
      <stop
         style="stop-color:#1c8226;stop-opacity:1;"
         offset="1"
         id="stop6994" />
    </linearGradient>
    <linearGradient
       y2="-0.50000149"
       x2="-721.54156"
       y1="-0.50000149"
       x1="-739.45844"
       gradientUnits="userSpaceOnUse"
       id="linearGradient22106-0-7"
       xlink:href="#linearGradient7515-6-8-7-5-43-8-0"
       inkscape:collect="always" />
    <linearGradient
       id="linearGradient6997">
      <stop
         style="stop-color:#09540e;stop-opacity:1;"
         offset="0"
         id="stop6999" />
      <stop
         style="stop-color:#1c8226;stop-opacity:1;"
         offset="1"
         id="stop7001" />
    </linearGradient>
    <linearGradient
       gradientTransform="translate(-129.93554,214.90244)"
       inkscape:collect="always"
       xlink:href="#linearGradient7515-6-8-7-5-42-0-8-0"
       id="linearGradient6474-1"
       x1="162.19136"
       y1="817.77533"
       x2="189.36707"
       y2="817.77533"
       gradientUnits="userSpaceOnUse" />
    <linearGradient
       id="linearGradient7515-6-8-7-5-42-0-8-0">
      <stop
         style="stop-color:#89780e;stop-opacity:1;"
         offset="0"
         id="stop7517-0-9-9-9-6-1-5-31" />
      <stop
         style="stop-color:#c2cb16;stop-opacity:1;"
         offset="1"
         id="stop7519-5-0-64-7-7-8-5-8" />
    </linearGradient>
    <linearGradient
       inkscape:collect="always"
       xlink:href="#linearGradient7515-6-8-7-5-42-0-8-0"
       id="linearGradient25366-7-0"
       gradientUnits="userSpaceOnUse"
       gradientTransform="matrix(3.6951222,0,0,3.6951222,2737.8451,1073.3529)"
       x1="-739.45844"
       y1="-0.50000149"
       x2="-721.54156"
       y2="-0.50000149" />
    <linearGradient
       id="linearGradient7008">
      <stop
         style="stop-color:#89780e;stop-opacity:1;"
         offset="0"
         id="stop7010" />
      <stop
         style="stop-color:#c2cb16;stop-opacity:1;"
         offset="1"
         id="stop7012" />
    </linearGradient>
    <linearGradient
       inkscape:collect="always"
       xlink:href="#linearGradient7515-6-8-7-5-42-0-8-0"
       id="linearGradient25363-8-1"
       gradientUnits="userSpaceOnUse"
       gradientTransform="matrix(3.7593083,0,0,3.8395409,2769.2662,1072.6044)"
       x1="-739.45844"
       y1="-0.50000149"
       x2="-721.54156"
       y2="-0.50000149" />
    <linearGradient
       id="linearGradient7015">
      <stop
         style="stop-color:#89780e;stop-opacity:1;"
         offset="0"
         id="stop7017" />
      <stop
         style="stop-color:#c2cb16;stop-opacity:1;"
         offset="1"
         id="stop7019" />
    </linearGradient>
    <linearGradient
       inkscape:collect="always"
       xlink:href="#linearGradient7515-6-8-7-5-42-0-8-0"
       id="linearGradient25483-9-8"
       gradientUnits="userSpaceOnUse"
       gradientTransform="matrix(1.7997511,0,0,1.7997511,1346.4708,1072.4255)"
       x1="-739.45844"
       y1="-0.50000149"
       x2="-721.54156"
       y2="-0.50000149" />
    <linearGradient
       id="linearGradient7022">
      <stop
         style="stop-color:#89780e;stop-opacity:1;"
         offset="0"
         id="stop7024" />
      <stop
         style="stop-color:#c2cb16;stop-opacity:1;"
         offset="1"
         id="stop7026" />
    </linearGradient>
    <linearGradient
       inkscape:collect="always"
       xlink:href="#linearGradient7515-6-8-7-5-42-0-8-0"
       id="linearGradient25475-6-6"
       gradientUnits="userSpaceOnUse"
       x1="-739.45844"
       y1="-0.50000149"
       x2="-721.54156"
       y2="-0.50000149" />
    <linearGradient
       id="linearGradient7029">
      <stop
         style="stop-color:#89780e;stop-opacity:1;"
         offset="0"
         id="stop7031" />
      <stop
         style="stop-color:#c2cb16;stop-opacity:1;"
         offset="1"
         id="stop7033" />
    </linearGradient>
    <linearGradient
       inkscape:collect="always"
       xlink:href="#linearGradient7515-6-8-7-5-42-0-8-0"
       id="linearGradient25479-5-4"
       gradientUnits="userSpaceOnUse"
       x1="-739.45844"
       y1="-0.50000149"
       x2="-721.54156"
       y2="-0.50000149" />
    <linearGradient
       id="linearGradient7036">
      <stop
         style="stop-color:#89780e;stop-opacity:1;"
         offset="0"
         id="stop7038" />
      <stop
         style="stop-color:#c2cb16;stop-opacity:1;"
         offset="1"
         id="stop7040" />
    </linearGradient>
    <radialGradient
       inkscape:collect="always"
       xlink:href="#linearGradient12700"
       id="radialGradient12706"
       cx="-363.59241"
       cy="845.03955"
       fx="-363.59241"
       fy="845.03955"
       r="12.284945"
       gradientTransform="matrix(1,0,0,1.5530125,0,-467.31746)"
       gradientUnits="userSpaceOnUse" />
    <linearGradient
       inkscape:collect="always"
       xlink:href="#linearGradient4291-1"
       id="linearGradient4297-4"
       x1="-47.593227"
       y1="1030.8965"
       x2="-44.330654"
       y2="1030.8965"
       gradientUnits="userSpaceOnUse" />
    <linearGradient
       id="linearGradient4291-1">
      <stop
         style="stop-color:#4c4c4c;stop-opacity:1;"
         offset="0"
         id="stop4293-0" />
      <stop
         style="stop-color:#5b5b5b;stop-opacity:1;"
         offset="1"
         id="stop4295-6" />
    </linearGradient>
    <linearGradient
       inkscape:collect="always"
       xlink:href="#linearGradient4299-6"
       id="linearGradient4305-3"
       x1="-47.593227"
       y1="1030.8965"
       x2="-44.330654"
       y2="1030.8965"
       gradientUnits="userSpaceOnUse" />
    <linearGradient
       id="linearGradient4299-6">
      <stop
         style="stop-color:#4c4c4c;stop-opacity:1;"
         offset="0"
         id="stop4301-5" />
      <stop
         style="stop-color:#5b5b5b;stop-opacity:1;"
         offset="1"
         id="stop4303-4" />
    </linearGradient>
    <linearGradient
       inkscape:collect="always"
       xlink:href="#linearGradient4291-3"
       id="linearGradient4297-0"
       x1="-47.593227"
       y1="1030.8965"
       x2="-44.330654"
       y2="1030.8965"
       gradientUnits="userSpaceOnUse" />
    <linearGradient
       id="linearGradient4291-3">
      <stop
         style="stop-color:#4c4c4c;stop-opacity:1;"
         offset="0"
         id="stop4293-3" />
      <stop
         style="stop-color:#5b5b5b;stop-opacity:1;"
         offset="1"
         id="stop4295-66" />
    </linearGradient>
    <linearGradient
       inkscape:collect="always"
       xlink:href="#linearGradient4299-2"
       id="linearGradient4305-0"
       x1="-47.593227"
       y1="1030.8965"
       x2="-44.330654"
       y2="1030.8965"
       gradientUnits="userSpaceOnUse" />
    <linearGradient
       id="linearGradient4299-2">
      <stop
         style="stop-color:#800000;stop-opacity:1;"
         offset="0"
         id="stop4301-0" />
      <stop
         style="stop-color:#b00606;stop-opacity:1;"
         offset="1"
         id="stop4303-6" />
    </linearGradient>
    <linearGradient
       gradientTransform="matrix(1.5616903,0,0,1.5176312,79.355533,-610.89659)"
       y2="1030.8965"
       x2="-44.330654"
       y1="1030.8965"
       x1="-47.593227"
       gradientUnits="userSpaceOnUse"
       id="linearGradient4376"
       xlink:href="#linearGradient4291-3"
       inkscape:collect="always" />
    <linearGradient
       gradientTransform="matrix(1.5616903,0,0,1.5176312,79.355533,-610.89659)"
       y2="1030.8965"
       x2="-44.330654"
       y1="1030.8965"
       x1="-47.593227"
       gradientUnits="userSpaceOnUse"
       id="linearGradient4378"
       xlink:href="#linearGradient4299-2"
       inkscape:collect="always" />
    <linearGradient
       gradientTransform="translate(-0.50507485,-48.234882)"
       y2="1030.8965"
       x2="-44.330654"
       y1="1030.8965"
       x1="-47.593227"
       gradientUnits="userSpaceOnUse"
       id="linearGradient4376-8"
       xlink:href="#linearGradient4291-3-8"
       inkscape:collect="always" />
    <linearGradient
       id="linearGradient4291-3-8">
      <stop
         style="stop-color:#4c4c4c;stop-opacity:1;"
         offset="0"
         id="stop4293-3-5" />
      <stop
         style="stop-color:#5b5b5b;stop-opacity:1;"
         offset="1"
         id="stop4295-66-1" />
    </linearGradient>
    <linearGradient
       gradientTransform="translate(-0.50507485,-48.234882)"
       y2="1030.8965"
       x2="-44.330654"
       y1="1030.8965"
       x1="-47.593227"
       gradientUnits="userSpaceOnUse"
       id="linearGradient4378-1"
       xlink:href="#linearGradient4299-2-0"
       inkscape:collect="always" />
    <linearGradient
       id="linearGradient4299-2-0">
      <stop
         style="stop-color:#800000;stop-opacity:1;"
         offset="0"
         id="stop4301-0-5" />
      <stop
         style="stop-color:#b00606;stop-opacity:1;"
         offset="1"
         id="stop4303-6-7" />
    </linearGradient>
    <linearGradient
       y2="1030.8965"
       x2="-44.330654"
       y1="1030.8965"
       x1="-47.593227"
       gradientTransform="matrix(1.5616903,0,0,1.5176312,79.35603,-533.59476)"
       gradientUnits="userSpaceOnUse"
       id="linearGradient4426"
       xlink:href="#linearGradient4291-3-8"
       inkscape:collect="always" />
    <linearGradient
       y2="1030.8965"
       x2="-44.330654"
       y1="1030.8965"
       x1="-47.593227"
       gradientTransform="matrix(1.5616903,0,0,1.5176312,79.35603,-533.59476)"
       gradientUnits="userSpaceOnUse"
       id="linearGradient4428"
       xlink:href="#linearGradient4299-2-0"
       inkscape:collect="always" />
    <linearGradient
       gradientTransform="translate(-0.50507485,-48.234882)"
       y2="1030.8965"
       x2="-44.330654"
       y1="1030.8965"
       x1="-47.593227"
       gradientUnits="userSpaceOnUse"
       id="linearGradient4376-3"
       xlink:href="#linearGradient4291-3-7"
       inkscape:collect="always" />
    <linearGradient
       id="linearGradient4291-3-7">
      <stop
         style="stop-color:#4c4c4c;stop-opacity:1;"
         offset="0"
         id="stop4293-3-59" />
      <stop
         style="stop-color:#5b5b5b;stop-opacity:1;"
         offset="1"
         id="stop4295-66-17" />
    </linearGradient>
    <linearGradient
       gradientTransform="translate(-0.50507485,-48.234882)"
       y2="1030.8965"
       x2="-44.330654"
       y1="1030.8965"
       x1="-47.593227"
       gradientUnits="userSpaceOnUse"
       id="linearGradient4378-7"
       xlink:href="#linearGradient4299-2-4"
       inkscape:collect="always" />
    <linearGradient
       id="linearGradient4299-2-4">
      <stop
         style="stop-color:#800000;stop-opacity:1;"
         offset="0"
         id="stop4301-0-52" />
      <stop
         style="stop-color:#b00606;stop-opacity:1;"
         offset="1"
         id="stop4303-6-0" />
    </linearGradient>
    <linearGradient
       y2="1030.8965"
       x2="-44.330654"
       y1="1030.8965"
       x1="-47.593227"
       gradientTransform="matrix(1.5435979,0,1.4231732e-8,1.5360295,741.45431,-827.20521)"
       gradientUnits="userSpaceOnUse"
       id="linearGradient4426-3"
       xlink:href="#linearGradient4291-3-7"
       inkscape:collect="always" />
    <linearGradient
       y2="1030.8965"
       x2="-44.330654"
       y1="1030.8965"
       x1="-47.593227"
       gradientTransform="matrix(1.5435979,0,1.4231732e-8,1.5360295,741.45431,-827.20521)"
       gradientUnits="userSpaceOnUse"
       id="linearGradient4428-4"
       xlink:href="#linearGradient4299-2-4"
       inkscape:collect="always" />
    <linearGradient
       inkscape:collect="always"
       xlink:href="#linearGradient4486"
       id="linearGradient4492"
       x1="-77.314423"
       y1="31.765217"
       x2="-69.978439"
       y2="31.765217"
       gradientUnits="userSpaceOnUse" />
  </defs>
  <sodipodi:namedview
     id="base"
     pagecolor="#ffffff"
     bordercolor="#666666"
     borderopacity="1.0"
     inkscape:pageopacity="0.0"
     inkscape:pageshadow="2"
     inkscape:zoom="2.8"
     inkscape:cx="-84.982287"
     inkscape:cy="45.418983"
     inkscape:document-units="px"
     inkscape:current-layer="layer1"
     showgrid="false"
     inkscape:window-width="1920"
     inkscape:window-height="1011"
     inkscape:window-x="-3"
     inkscape:window-y="-3"
     inkscape:window-maximized="1" />
  <metadata
     id="metadata5665">
    <rdf:RDF>
      <cc:Work
         rdf:about="">
        <dc:format>image/svg+xml</dc:format>
        <dc:type
           rdf:resource="http://purl.org/dc/dcmitype/StillImage" />
        <dc:title></dc:title>
      </cc:Work>
    </rdf:RDF>
  </metadata>
  <g
     inkscape:label="Layer 1"
     inkscape:groupmode="layer"
     id="layer1"
     transform="translate(0,-932.3622)">
    <rect
       style="fill:url(#linearGradient4376);fill-opacity:1;stroke:url(#linearGradient4378);stroke-width:6.15801239;stroke-linejoin:round;stroke-miterlimit:4.0999999;stroke-opacity:1;stroke-dasharray:none"
       id="rect3477-0-4"
       width="3.3522844"
       height="36.792934"
       x="5.9010749"
       y="935.22803" />
    <rect
       style="fill:url(#linearGradient4426-3);fill-opacity:1;stroke:url(#linearGradient4428-4);stroke-width:6.15923643;stroke-linejoin:round;stroke-miterlimit:4.0999999;stroke-opacity:1;stroke-dasharray:none"
       id="rect3477-0-4-4"
       width="3.3134482"
       height="37.238976"
       x="668.85077"
       y="737.66272"
       transform="matrix(0.77441301,0.63268041,-0.65425601,0.75627315,0,0)" />
    <rect
       style="fill:url(#linearGradient4426);fill-opacity:1;stroke:url(#linearGradient4428);stroke-width:6.15801239;stroke-linejoin:round;stroke-miterlimit:4.0999999;stroke-opacity:1;stroke-dasharray:none"
       id="rect3477-0-4-2"
       width="3.3522844"
       height="36.792934"
       x="5.901576"
       y="1012.5297" />
    <path
       sodipodi:type="arc"
       style="fill:#4c4c4c;fill-opacity:1;stroke:url(#linearGradient4492);stroke-width:5;stroke-linejoin:round;stroke-miterlimit:4.0999999;stroke-opacity:1;stroke-dasharray:none"
       id="path4484"
       sodipodi:cx="-73.646431"
       sodipodi:cy="31.765217"
       sodipodi:rx="1.1679889"
       sodipodi:ry="1.3889598"
       d="m -72.478442,31.765217 a 1.1679889,1.3889598 0 1 1 -2.335978,0 1.1679889,1.3889598 0 1 1 2.335978,0 z"
       transform="matrix(2.0433963,0,0,1.9857471,157.98657,951.29328)" />
  </g>
</svg>
