<?xml version="1.0" encoding="UTF-8" standalone="no"?>
<!-- Created with Inkscape (http://www.inkscape.org/) -->

<svg
   xmlns:dc="http://purl.org/dc/elements/1.1/"
   xmlns:cc="http://creativecommons.org/ns#"
   xmlns:rdf="http://www.w3.org/1999/02/22-rdf-syntax-ns#"
   xmlns:svg="http://www.w3.org/2000/svg"
   xmlns="http://www.w3.org/2000/svg"
   xmlns:xlink="http://www.w3.org/1999/xlink"
   xmlns:sodipodi="http://sodipodi.sourceforge.net/DTD/sodipodi-0.dtd"
   xmlns:inkscape="http://www.inkscape.org/namespaces/inkscape"
   width="82"
   height="129"
   id="svg5660"
   version="1.1"
   inkscape:version="0.48.4 r9939"
   sodipodi:docname="tv_gray_right.svg">
  <defs
     id="defs5662">
    <linearGradient
       id="linearGradient7242">
      <stop
         style="stop-color:#4c4c4c;stop-opacity:1;"
         offset="0"
         id="stop7244" />
      <stop
         style="stop-color:#717171;stop-opacity:1;"
         offset="1"
         id="stop7246" />
    </linearGradient>
    <linearGradient
       inkscape:collect="always"
       xlink:href="#linearGradient7515-6-8-7-5-46-1"
       id="linearGradient21497-2-8"
       gradientUnits="userSpaceOnUse"
       x1="-739.45844"
       y1="-0.50000149"
       x2="-721.54156"
       y2="-0.50000149" />
    <linearGradient
       id="linearGradient7515-6-8-7-5-46-1">
      <stop
         style="stop-color:#09540e;stop-opacity:1;"
         offset="0"
         id="stop7517-0-9-9-9-1-2" />
      <stop
         style="stop-color:#1c8226;stop-opacity:1;"
         offset="1"
         id="stop7519-5-0-64-7-6-6" />
    </linearGradient>
    <linearGradient
       id="linearGradient5610">
      <stop
         style="stop-color:#09540e;stop-opacity:1;"
         offset="0"
         id="stop5612" />
      <stop
         style="stop-color:#1c8226;stop-opacity:1;"
         offset="1"
         id="stop5614" />
    </linearGradient>
    <linearGradient
       id="linearGradient5617">
      <stop
         style="stop-color:#09540e;stop-opacity:1;"
         offset="0"
         id="stop5619" />
      <stop
         style="stop-color:#1c8226;stop-opacity:1;"
         offset="1"
         id="stop5621" />
    </linearGradient>
    <linearGradient
       id="linearGradient5624">
      <stop
         style="stop-color:#09540e;stop-opacity:1;"
         offset="0"
         id="stop5626" />
      <stop
         style="stop-color:#1c8226;stop-opacity:1;"
         offset="1"
         id="stop5628" />
    </linearGradient>
    <linearGradient
       id="linearGradient10101-1-8-9-6-7-0-3">
      <stop
         style="stop-color:#ffffff;stop-opacity:1;"
         offset="0"
         id="stop10103-9-6-9-6-8-8-4" />
      <stop
         style="stop-color:#ffffff;stop-opacity:0;"
         offset="1"
         id="stop10105-2-2-1-1-3-6-2" />
    </linearGradient>
    <linearGradient
       y2="-0.50000149"
       x2="-721.54156"
       y1="-0.50000149"
       x1="-739.45844"
       gradientUnits="userSpaceOnUse"
       id="linearGradient22613-6-4"
       xlink:href="#linearGradient7515-6-8-7-5-42-0-8"
       inkscape:collect="always" />
    <linearGradient
       id="linearGradient7515-6-8-7-5-42-0-8">
      <stop
         style="stop-color:#89780e;stop-opacity:1;"
         offset="0"
         id="stop7517-0-9-9-9-6-1-5" />
      <stop
         style="stop-color:#c2cb16;stop-opacity:1;"
         offset="1"
         id="stop7519-5-0-64-7-7-8-5" />
    </linearGradient>
    <linearGradient
       id="linearGradient5759">
      <stop
         style="stop-color:#89780e;stop-opacity:1;"
         offset="0"
         id="stop5761" />
      <stop
         style="stop-color:#c2cb16;stop-opacity:1;"
         offset="1"
         id="stop5763" />
    </linearGradient>
    <linearGradient
       id="linearGradient5766">
      <stop
         style="stop-color:#89780e;stop-opacity:1;"
         offset="0"
         id="stop5768" />
      <stop
         style="stop-color:#c2cb16;stop-opacity:1;"
         offset="1"
         id="stop5770" />
    </linearGradient>
    <linearGradient
       id="linearGradient5773">
      <stop
         style="stop-color:#89780e;stop-opacity:1;"
         offset="0"
         id="stop5775" />
      <stop
         style="stop-color:#c2cb16;stop-opacity:1;"
         offset="1"
         id="stop5777" />
    </linearGradient>
    <linearGradient
       inkscape:collect="always"
       xlink:href="#linearGradient7515-6-8-7-5-46-1-9"
       id="linearGradient23376-1-0"
       gradientUnits="userSpaceOnUse"
       x1="-739.45844"
       y1="-0.50000149"
       x2="-721.54156"
       y2="-0.50000149" />
    <linearGradient
       id="linearGradient7515-6-8-7-5-46-1-9">
      <stop
         style="stop-color:#09540e;stop-opacity:1;"
         offset="0"
         id="stop7517-0-9-9-9-1-2-8" />
      <stop
         style="stop-color:#1c8226;stop-opacity:1;"
         offset="1"
         id="stop7519-5-0-64-7-6-6-7" />
    </linearGradient>
    <linearGradient
       id="linearGradient6010">
      <stop
         style="stop-color:#09540e;stop-opacity:1;"
         offset="0"
         id="stop6012" />
      <stop
         style="stop-color:#1c8226;stop-opacity:1;"
         offset="1"
         id="stop6014" />
    </linearGradient>
    <linearGradient
       id="linearGradient6017">
      <stop
         style="stop-color:#09540e;stop-opacity:1;"
         offset="0"
         id="stop6019" />
      <stop
         style="stop-color:#1c8226;stop-opacity:1;"
         offset="1"
         id="stop6021" />
    </linearGradient>
    <linearGradient
       id="linearGradient6024">
      <stop
         style="stop-color:#09540e;stop-opacity:1;"
         offset="0"
         id="stop6026" />
      <stop
         style="stop-color:#1c8226;stop-opacity:1;"
         offset="1"
         id="stop6028" />
    </linearGradient>
    <linearGradient
       id="linearGradient6031">
      <stop
         style="stop-color:#09540e;stop-opacity:1;"
         offset="0"
         id="stop6033" />
      <stop
         style="stop-color:#1c8226;stop-opacity:1;"
         offset="1"
         id="stop6035" />
    </linearGradient>
    <linearGradient
       id="linearGradient6038">
      <stop
         style="stop-color:#09540e;stop-opacity:1;"
         offset="0"
         id="stop6040" />
      <stop
         style="stop-color:#1c8226;stop-opacity:1;"
         offset="1"
         id="stop6042" />
    </linearGradient>
    <linearGradient
       id="linearGradient6045">
      <stop
         style="stop-color:#09540e;stop-opacity:1;"
         offset="0"
         id="stop6047" />
      <stop
         style="stop-color:#1c8226;stop-opacity:1;"
         offset="1"
         id="stop6049" />
    </linearGradient>
    <linearGradient
       id="linearGradient6052">
      <stop
         style="stop-color:#09540e;stop-opacity:1;"
         offset="0"
         id="stop6054" />
      <stop
         style="stop-color:#1c8226;stop-opacity:1;"
         offset="1"
         id="stop6056" />
    </linearGradient>
    <linearGradient
       id="linearGradient6059">
      <stop
         style="stop-color:#09540e;stop-opacity:1;"
         offset="0"
         id="stop6061" />
      <stop
         style="stop-color:#1c8226;stop-opacity:1;"
         offset="1"
         id="stop6063" />
    </linearGradient>
    <linearGradient
       inkscape:collect="always"
       xlink:href="#linearGradient7515-6-8-7-5-46-1-9"
       id="linearGradient21493-5-8"
       gradientUnits="userSpaceOnUse"
       gradientTransform="matrix(3.6380584,0,0,3.6380584,2281.3199,920.84108)"
       x1="-739.45844"
       y1="-0.50000149"
       x2="-721.54156"
       y2="-0.50000149" />
    <linearGradient
       id="linearGradient6066">
      <stop
         style="stop-color:#09540e;stop-opacity:1;"
         offset="0"
         id="stop6068" />
      <stop
         style="stop-color:#1c8226;stop-opacity:1;"
         offset="1"
         id="stop6070" />
    </linearGradient>
    <linearGradient
       inkscape:collect="always"
       xlink:href="#linearGradient7515-6-8-7-5-42-0-8-5"
       id="linearGradient25544-6"
       gradientUnits="userSpaceOnUse"
       gradientTransform="matrix(2.5758507,0,0,2.5758507,2034.249,942.31135)"
       x1="-739.45844"
       y1="-0.50000149"
       x2="-721.54156"
       y2="-0.50000149" />
    <linearGradient
       id="linearGradient7515-6-8-7-5-42-0-8-5">
      <stop
         style="stop-color:#89780e;stop-opacity:1;"
         offset="0"
         id="stop7517-0-9-9-9-6-1-5-3" />
      <stop
         style="stop-color:#c2cb16;stop-opacity:1;"
         offset="1"
         id="stop7519-5-0-64-7-7-8-5-4" />
    </linearGradient>
    <linearGradient
       inkscape:collect="always"
       xlink:href="#linearGradient7515-6-8-7-5-42-0-8-4"
       id="linearGradient25541-8"
       gradientUnits="userSpaceOnUse"
       x1="-739.45844"
       y1="-0.50000149"
       x2="-721.54156"
       y2="-0.50000149" />
    <linearGradient
       id="linearGradient7515-6-8-7-5-42-0-8-4">
      <stop
         style="stop-color:#89780e;stop-opacity:1;"
         offset="0"
         id="stop7517-0-9-9-9-6-1-5-0" />
      <stop
         style="stop-color:#c2cb16;stop-opacity:1;"
         offset="1"
         id="stop7519-5-0-64-7-7-8-5-7" />
    </linearGradient>
    <linearGradient
       id="linearGradient6281">
      <stop
         style="stop-color:#89780e;stop-opacity:1;"
         offset="0"
         id="stop6283" />
      <stop
         style="stop-color:#c2cb16;stop-opacity:1;"
         offset="1"
         id="stop6285" />
    </linearGradient>
    <linearGradient
       id="linearGradient6288">
      <stop
         style="stop-color:#89780e;stop-opacity:1;"
         offset="0"
         id="stop6290" />
      <stop
         style="stop-color:#c2cb16;stop-opacity:1;"
         offset="1"
         id="stop6292" />
    </linearGradient>
    <linearGradient
       id="linearGradient6295">
      <stop
         style="stop-color:#89780e;stop-opacity:1;"
         offset="0"
         id="stop6297" />
      <stop
         style="stop-color:#c2cb16;stop-opacity:1;"
         offset="1"
         id="stop6299" />
    </linearGradient>
    <linearGradient
       id="linearGradient6302">
      <stop
         style="stop-color:#89780e;stop-opacity:1;"
         offset="0"
         id="stop6304" />
      <stop
         style="stop-color:#c2cb16;stop-opacity:1;"
         offset="1"
         id="stop6306" />
    </linearGradient>
    <linearGradient
       id="linearGradient6309">
      <stop
         style="stop-color:#89780e;stop-opacity:1;"
         offset="0"
         id="stop6311" />
      <stop
         style="stop-color:#c2cb16;stop-opacity:1;"
         offset="1"
         id="stop6313" />
    </linearGradient>
    <linearGradient
       id="linearGradient6316">
      <stop
         style="stop-color:#89780e;stop-opacity:1;"
         offset="0"
         id="stop6318" />
      <stop
         style="stop-color:#c2cb16;stop-opacity:1;"
         offset="1"
         id="stop6320" />
    </linearGradient>
    <linearGradient
       id="linearGradient6323">
      <stop
         style="stop-color:#89780e;stop-opacity:1;"
         offset="0"
         id="stop6325" />
      <stop
         style="stop-color:#c2cb16;stop-opacity:1;"
         offset="1"
         id="stop6327" />
    </linearGradient>
    <linearGradient
       inkscape:collect="always"
       xlink:href="#linearGradient7515-6-8-7-5-42-0-8-4"
       id="linearGradient21489-8-4-5"
       gradientUnits="userSpaceOnUse"
       x1="-739.45844"
       y1="-0.50000149"
       x2="-721.54156"
       y2="-0.50000149" />
    <linearGradient
       id="linearGradient6330">
      <stop
         style="stop-color:#89780e;stop-opacity:1;"
         offset="0"
         id="stop6332" />
      <stop
         style="stop-color:#c2cb16;stop-opacity:1;"
         offset="1"
         id="stop6334" />
    </linearGradient>
    <linearGradient
       id="linearGradient6337">
      <stop
         style="stop-color:#89780e;stop-opacity:1;"
         offset="0"
         id="stop6339" />
      <stop
         style="stop-color:#c2cb16;stop-opacity:1;"
         offset="1"
         id="stop6341" />
    </linearGradient>
    <linearGradient
       inkscape:collect="always"
       xlink:href="#linearGradient7515-6-8-7-5-9-8-0-3"
       id="linearGradient25313-1"
       gradientUnits="userSpaceOnUse"
       gradientTransform="matrix(2.2911625,0,0,2.2911625,1867.6597,988.04555)"
       x1="-739.45844"
       y1="-0.50000149"
       x2="-721.54156"
       y2="-0.50000149" />
    <linearGradient
       id="linearGradient7515-6-8-7-5-9-8-0-3">
      <stop
         style="stop-color:#09540e;stop-opacity:1;"
         offset="0"
         id="stop7517-0-9-9-9-7-0-4-6" />
      <stop
         style="stop-color:#1c8226;stop-opacity:1;"
         offset="1"
         id="stop7519-5-0-64-7-0-6-8-3" />
    </linearGradient>
    <linearGradient
       y2="-0.50000149"
       x2="-721.54156"
       y1="-0.50000149"
       x1="-739.45844"
       gradientTransform="matrix(2.2911625,0,0,2.2911625,1698.2742,1076.1781)"
       gradientUnits="userSpaceOnUse"
       id="linearGradient6499"
       xlink:href="#linearGradient7515-6-8-7-5-9-8-0-3"
       inkscape:collect="always" />
    <linearGradient
       inkscape:collect="always"
       xlink:href="#linearGradient7515-6-8-7-5-46-1-96"
       id="linearGradient25458-0"
       gradientUnits="userSpaceOnUse"
       gradientTransform="matrix(7.6113042,0,0,7.6152321,5568.5062,1032.429)"
       x1="-739.45844"
       y1="-0.50000149"
       x2="-721.54156"
       y2="-0.50000149" />
    <linearGradient
       id="linearGradient7515-6-8-7-5-46-1-96">
      <stop
         style="stop-color:#4c4c4c;stop-opacity:1;"
         offset="0"
         id="stop7517-0-9-9-9-1-2-88" />
      <stop
         style="stop-color:#717171;stop-opacity:1;"
         offset="1"
         id="stop7519-5-0-64-7-6-6-0" />
    </linearGradient>
    <linearGradient
       inkscape:collect="always"
       xlink:href="#linearGradient7515-6-8-7-5-46-1-96"
       id="linearGradient25461-7"
       gradientUnits="userSpaceOnUse"
       gradientTransform="matrix(3.6951222,0,0,3.6951222,2735.2884,939.46745)"
       x1="-739.45844"
       y1="-0.50000149"
       x2="-721.54156"
       y2="-0.50000149" />
    <linearGradient
       id="linearGradient6558">
      <stop
         style="stop-color:#09540e;stop-opacity:1;"
         offset="0"
         id="stop6560" />
      <stop
         style="stop-color:#1c8226;stop-opacity:1;"
         offset="1"
         id="stop6562" />
    </linearGradient>
    <linearGradient
       inkscape:collect="always"
       xlink:href="#linearGradient7515-6-8-7-5-46-1-96"
       id="linearGradient25497-9"
       gradientUnits="userSpaceOnUse"
       x1="-739.45844"
       y1="-0.50000149"
       x2="-721.54156"
       y2="-0.50000149" />
    <linearGradient
       id="linearGradient6565">
      <stop
         style="stop-color:#09540e;stop-opacity:1;"
         offset="0"
         id="stop6567" />
      <stop
         style="stop-color:#1c8226;stop-opacity:1;"
         offset="1"
         id="stop6569" />
    </linearGradient>
    <linearGradient
       inkscape:collect="always"
       xlink:href="#linearGradient7515-6-8-7-5-46-1-96"
       id="linearGradient25501-3"
       gradientUnits="userSpaceOnUse"
       x1="-739.45844"
       y1="-0.50000149"
       x2="-721.54156"
       y2="-0.50000149" />
    <linearGradient
       id="linearGradient6572">
      <stop
         style="stop-color:#09540e;stop-opacity:1;"
         offset="0"
         id="stop6574" />
      <stop
         style="stop-color:#1c8226;stop-opacity:1;"
         offset="1"
         id="stop6576" />
    </linearGradient>
    <linearGradient
       inkscape:collect="always"
       xlink:href="#linearGradient7515-6-8-7-5-46-1-96"
       id="linearGradient25505-4"
       gradientUnits="userSpaceOnUse"
       gradientTransform="matrix(3.6438759,0,0,3.5695733,2687.8354,1032.0741)"
       x1="-739.45844"
       y1="-0.50000149"
       x2="-721.54156"
       y2="-0.50000149" />
    <linearGradient
       id="linearGradient6579">
      <stop
         style="stop-color:#09540e;stop-opacity:1;"
         offset="0"
         id="stop6581" />
      <stop
         style="stop-color:#1c8226;stop-opacity:1;"
         offset="1"
         id="stop6583" />
    </linearGradient>
    <linearGradient
       y2="-0.50000149"
       x2="-721.54156"
       y1="-0.50000149"
       x1="-739.45844"
       gradientTransform="matrix(7.4813495,0,0,7.3287964,5504.8893,1033.9135)"
       gradientUnits="userSpaceOnUse"
       id="linearGradient6591"
       xlink:href="#linearGradient7515-6-8-7-5-46-1-96"
       inkscape:collect="always" />
    <linearGradient
       inkscape:collect="always"
       xlink:href="#linearGradient7242"
       id="linearGradient7252"
       x1="13.800972"
       y1="1002.9421"
       x2="40.976662"
       y2="1002.9421"
       gradientUnits="userSpaceOnUse"
       gradientTransform="matrix(2.0246555,0,0,1.9833705,-0.9392824,-1035.9659)" />
  </defs>
  <sodipodi:namedview
     id="base"
     pagecolor="#ffffff"
     bordercolor="#666666"
     borderopacity="1.0"
     inkscape:pageopacity="0.0"
     inkscape:pageshadow="2"
     inkscape:zoom="2.8"
     inkscape:cx="-78.44293"
     inkscape:cy="62.705251"
     inkscape:document-units="px"
     inkscape:current-layer="layer1"
     showgrid="false"
     inkscape:window-width="1920"
     inkscape:window-height="1011"
     inkscape:window-x="-3"
     inkscape:window-y="-3"
     inkscape:window-maximized="1" />
  <metadata
     id="metadata5665">
    <rdf:RDF>
      <cc:Work
         rdf:about="">
        <dc:format>image/svg+xml</dc:format>
        <dc:type
           rdf:resource="http://purl.org/dc/dcmitype/StillImage" />
        <dc:title />
      </cc:Work>
    </rdf:RDF>
  </metadata>
  <g
     inkscape:label="Layer 1"
     inkscape:groupmode="layer"
     id="layer1"
     transform="translate(0,-923.3622)">
    <path
       style="fill:none;stroke:url(#linearGradient6591);stroke-width:4.44020796px;stroke-linecap:butt;stroke-linejoin:miter;stroke-opacity:1"
       d="m 16.259751,1032.6428 0,17.4799"
       id="path6677-7-5-7-4-5-3-8-6-2"
       inkscape:connector-curvature="0" />
    <path
       style="fill:none;stroke:url(#linearGradient25458-0);stroke-width:4.56528759px;stroke-linecap:butt;stroke-linejoin:miter;stroke-opacity:1"
       d="m 42.224419,1033.1266 0,16.9523"
       id="path6679-5-6-2-2-8-2-4-4-3"
       inkscape:connector-curvature="0" />
    <path
       transform="matrix(2.1850462,0,0,2.1404907,1852.5632,1598.8731)"
       sodipodi:type="arc"
       style="fill:none;stroke:url(#linearGradient25497-9);stroke-width:2.29703188;stroke-linecap:round;stroke-linejoin:round;stroke-miterlimit:4;stroke-opacity:1;stroke-dasharray:none;stroke-dashoffset:0"
       id="path6534-4-2-44-0-3-4-8-6-7-2"
       sodipodi:cx="-834.20923"
       sodipodi:cy="-281.00583"
       sodipodi:rx="7.2478447"
       sodipodi:ry="7.2478447"
       d="m -826.96138,-281.00583 c 0,4.00288 -3.24497,7.24785 -7.24785,7.24785 -4.00287,0 -7.24784,-3.24497 -7.24784,-7.24785 0,-4.00287 3.24497,-7.24784 7.24784,-7.24784 4.00288,0 7.24785,3.24497 7.24785,7.24784 z" />
    <path
       inkscape:connector-curvature="0"
       style="fill:none;stroke:url(#linearGradient25505-4);stroke-width:4.96768475;stroke-linecap:round;stroke-linejoin:round;stroke-miterlimit:4;stroke-opacity:1;stroke-dasharray:none;stroke-dashoffset:0"
       d="m 57.534439,1016.8024 c 0,8.5682 -7.090425,15.514 -15.836917,15.514 -8.746451,0 -15.836855,-6.9458 -15.836855,-15.514 0,-8.568 7.090404,-15.5138 15.836855,-15.5138 8.746492,0 15.836917,6.9458 15.836917,15.5138 z"
       id="path6534-0-2-37-8-3-4-9-5-0-3-1" />
    <path
       transform="matrix(2.1850462,0,0,2.1404907,1841.1079,1618.308)"
       sodipodi:type="arc"
       style="fill:none;stroke:url(#linearGradient25501-3);stroke-width:2.29703188;stroke-linecap:round;stroke-linejoin:round;stroke-miterlimit:4;stroke-opacity:1;stroke-dasharray:none;stroke-dashoffset:0"
       id="path6534-1-8-2-9-8-2-9-7-9-3-5"
       sodipodi:cx="-834.20923"
       sodipodi:cy="-281.00583"
       sodipodi:rx="7.2478447"
       sodipodi:ry="7.2478447"
       d="m -826.96138,-281.00583 c 0,4.00288 -3.24497,7.24785 -7.24785,7.24785 -4.00287,0 -7.24784,-3.24497 -7.24784,-7.24785 0,-4.00287 3.24497,-7.24784 7.24784,-7.24784 4.00288,0 7.24785,3.24497 7.24785,7.24784 z" />
    <path
       style="fill:none;stroke:url(#linearGradient7252);stroke-width:4.29721165;stroke-linecap:round;stroke-linejoin:miter;stroke-miterlimit:4;stroke-opacity:1;stroke-dasharray:none"
       d="m 29.347832,980.96912 c -0.391607,-0.76737 0,-20.52293 0,-20.52293 L 79.85349,925.51095"
       id="path21876-4-1"
       inkscape:connector-curvature="0"
       sodipodi:nodetypes="ccc" />
  </g>
</svg>
