<?xml version="1.0" encoding="UTF-8" standalone="no"?>
<!-- Created with Inkscape (http://www.inkscape.org/) -->

<svg
   xmlns:dc="http://purl.org/dc/elements/1.1/"
   xmlns:cc="http://creativecommons.org/ns#"
   xmlns:rdf="http://www.w3.org/1999/02/22-rdf-syntax-ns#"
   xmlns:svg="http://www.w3.org/2000/svg"
   xmlns="http://www.w3.org/2000/svg"
   xmlns:xlink="http://www.w3.org/1999/xlink"
   xmlns:sodipodi="http://sodipodi.sourceforge.net/DTD/sodipodi-0.dtd"
   xmlns:inkscape="http://www.inkscape.org/namespaces/inkscape"
   width="350"
   height="33"
   id="svg38923"
   version="1.1"
   inkscape:version="0.48.4 r9939"
   sodipodi:docname="button-black.svg">
  <defs
     id="defs38925">
    <linearGradient
       id="linearGradient18264-02-5-7">
      <stop
         style="stop-color:#292929;stop-opacity:1;"
         offset="0"
         id="stop18266-978-6-6" />
      <stop
         style="stop-color:#9a9a9a;stop-opacity:0.47187501;"
         offset="1"
         id="stop18268-1-4-0" />
    </linearGradient>
    <linearGradient
       inkscape:collect="always"
       xlink:href="#linearGradient18264-02-5-7-8"
       id="linearGradient21604-6-6"
       gradientUnits="userSpaceOnUse"
       gradientTransform="matrix(0.97582898,0,0,1.9326647,-115.89059,77.1927)"
       x1="472.55441"
       y1="67.070892"
       x2="472.55441"
       y2="73.617867" />
    <linearGradient
       id="linearGradient18264-02-5-7-8">
      <stop
         style="stop-color:#292929;stop-opacity:1;"
         offset="0"
         id="stop18266-978-6-6-5" />
      <stop
         style="stop-color:#9a9a9a;stop-opacity:0.47187501;"
         offset="1"
         id="stop18268-1-4-0-0" />
    </linearGradient>
  </defs>
  <sodipodi:namedview
     id="base"
     pagecolor="#ffffff"
     bordercolor="#666666"
     borderopacity="1.0"
     inkscape:pageopacity="0.0"
     inkscape:pageshadow="2"
     inkscape:zoom="1.4"
     inkscape:cx="54.464044"
     inkscape:cy="47.925072"
     inkscape:document-units="px"
     inkscape:current-layer="g21597-8"
     showgrid="false"
     inkscape:window-width="1920"
     inkscape:window-height="1011"
     inkscape:window-x="-3"
     inkscape:window-y="-3"
     inkscape:window-maximized="1" />
  <metadata
     id="metadata38928">
    <rdf:RDF>
      <cc:Work
         rdf:about="">
        <dc:format>image/svg+xml</dc:format>
        <dc:type
           rdf:resource="http://purl.org/dc/dcmitype/StillImage" />
        <dc:title></dc:title>
      </cc:Work>
    </rdf:RDF>
  </metadata>
  <g
     inkscape:label="Layer 1"
     inkscape:groupmode="layer"
     id="layer1"
     transform="translate(0,-1019.3622)">
    <g
       id="g21597-8"
       transform="matrix(5.5885626,0,0,5.3897039,-1618.9682,-143.85449)"
       inkscape:export-filename="/home/pv/Projects/mpu.22220/src/GUI/images/bg-control.png"
       inkscape:export-xdpi="90"
       inkscape:export-ydpi="90"
       style="fill:#212121;fill-opacity:1">
      <rect
         y="-221.94478"
         x="-352.32104"
         height="6.1227856"
         width="62.627911"
         id="rect23021-5-0-2-7-8-7-2-3-6"
         style="fill:#000000;fill-opacity:1;fill-rule:nonzero;stroke:none"
         ry="0.60001892"
         transform="scale(-1,-1)" />
    </g>
  </g>
</svg>
